<?xml version="1.0" encoding="UTF-8" standalone="no"?>
<!-- Created with Inkscape (http://www.inkscape.org/) -->

<svg
   xmlns:dc="http://purl.org/dc/elements/1.1/"
   xmlns:cc="http://creativecommons.org/ns#"
   xmlns:rdf="http://www.w3.org/1999/02/22-rdf-syntax-ns#"
   xmlns:svg="http://www.w3.org/2000/svg"
   xmlns="http://www.w3.org/2000/svg"
   xmlns:sodipodi="http://sodipodi.sourceforge.net/DTD/sodipodi-0.dtd"
   xmlns:inkscape="http://www.inkscape.org/namespaces/inkscape"
   width="121.11889mm"
   height="80.572998mm"
   viewBox="0 0 121.11889 80.572998"
   version="1.1"
   id="svg5630"
   inkscape:version="0.92.1 r15371"
   sodipodi:docname="volts_flag_2018.svg">
  <defs
     id="defs5624" />
  <sodipodi:namedview
     id="base"
     pagecolor="#ffffff"
     bordercolor="#666666"
     borderopacity="1.0"
     inkscape:pageopacity="0.0"
     inkscape:pageshadow="2"
     inkscape:zoom="1.4"
     inkscape:cx="141.79518"
     inkscape:cy="122.15269"
     inkscape:document-units="mm"
     inkscape:current-layer="layer1"
     showgrid="false"
     inkscape:window-width="1366"
     inkscape:window-height="705"
     inkscape:window-x="-8"
     inkscape:window-y="-8"
     inkscape:window-maximized="1"
     width="296mm"
     fit-margin-top="0"
     fit-margin-left="0"
     fit-margin-right="0"
     fit-margin-bottom="0" />
  <metadata
     id="metadata5627">
    <rdf:RDF>
      <cc:Work
         rdf:about="">
        <dc:format>image/svg+xml</dc:format>
        <dc:type
           rdf:resource="http://purl.org/dc/dcmitype/StillImage" />
        <dc:title />
      </cc:Work>
    </rdf:RDF>
  </metadata>
  <g
     inkscape:label="Layer 1"
     inkscape:groupmode="layer"
     id="layer1"
     transform="translate(-84.583419,-145.5885)">
    <rect
       style="fill:#ffffff;stroke:#000000;stroke-width:0.57300001;stroke-miterlimit:4;stroke-dasharray:none;stroke-opacity:1"
       id="rect10"
       width="120.54589"
       height="80"
       x="84.869919"
       y="145.875" />
    <g
       transform="translate(63.021649,125.72615)"
       id="g4128"
       style="fill:#ff8200;fill-opacity:1">
      <rect
         y="60.148853"
         x="21.848265"
         height="4.000001"
         width="4.000001"
         id="rect3598-1-0-3"
         style="fill:#ff8200;fill-opacity:1;stroke:none;stroke-width:0.29641661;stroke-miterlimit:4;stroke-dasharray:none;stroke-opacity:1" />
      <rect
         y="64.148865"
         x="25.848265"
         height="4.000001"
         width="4.000001"
         id="rect3598-4-68-56"
         style="fill:#ff8200;fill-opacity:1;stroke:none;stroke-width:0.29641661;stroke-miterlimit:4;stroke-dasharray:none;stroke-opacity:1" />
      <rect
         y="68.14888"
         x="21.848265"
         height="4.000001"
         width="4.000001"
         id="rect3598-0-1-8"
         style="fill:#ff8200;fill-opacity:1;stroke:none;stroke-width:0.29641661;stroke-miterlimit:4;stroke-dasharray:none;stroke-opacity:1" />
      <rect
         y="72.148865"
         x="25.848265"
         height="4.000001"
         width="4.000001"
         id="rect3598-6-6-5-2"
         style="fill:#ff8200;fill-opacity:1;stroke:none;stroke-width:0.29641661;stroke-miterlimit:4;stroke-dasharray:none;stroke-opacity:1" />
      <rect
         y="76.14888"
         x="21.848265"
         height="4.000001"
         width="4.000001"
         id="rect3598-1-3-0-3"
         style="fill:#ff8200;fill-opacity:1;stroke:none;stroke-width:0.29641661;stroke-miterlimit:4;stroke-dasharray:none;stroke-opacity:1" />
      <rect
         y="80.148865"
         x="25.848265"
         height="4.000001"
         width="4.000001"
         id="rect3598-4-4-3-1"
         style="fill:#ff8200;fill-opacity:1;stroke:none;stroke-width:0.29641661;stroke-miterlimit:4;stroke-dasharray:none;stroke-opacity:1" />
      <rect
         y="84.148865"
         x="21.848265"
         height="4.000001"
         width="4.000001"
         id="rect3598-11-6-2"
         style="fill:#ff8200;fill-opacity:1;stroke:none;stroke-width:0.29641661;stroke-miterlimit:4;stroke-dasharray:none;stroke-opacity:1" />
      <rect
         y="88.148865"
         x="25.848265"
         height="4.000001"
         width="4.000001"
         id="rect3598-6-0-0-8"
         style="fill:#ff8200;fill-opacity:1;stroke:none;stroke-width:0.29641661;stroke-miterlimit:4;stroke-dasharray:none;stroke-opacity:1" />
      <rect
         y="92.148865"
         x="21.848265"
         height="4.000001"
         width="4.000001"
         id="rect3598-1-2-3-9"
         style="fill:#ff8200;fill-opacity:1;stroke:none;stroke-width:0.29641661;stroke-miterlimit:4;stroke-dasharray:none;stroke-opacity:1" />
      <rect
         y="96.148865"
         x="25.848265"
         height="4.000001"
         width="4.000001"
         id="rect3598-4-6-0-8"
         style="fill:#ff8200;fill-opacity:1;stroke:none;stroke-width:0.29641661;stroke-miterlimit:4;stroke-dasharray:none;stroke-opacity:1" />
      <rect
         y="20.148853"
         x="21.848265"
         height="4.000001"
         width="4.000001"
         id="rect3598-1-0-8-1"
         style="fill:#ff8200;fill-opacity:1;stroke:none;stroke-width:0.29641661;stroke-miterlimit:4;stroke-dasharray:none;stroke-opacity:1" />
      <rect
         y="24.148853"
         x="25.848265"
         height="4.000001"
         width="4.000001"
         id="rect3598-4-68-1-7"
         style="fill:#ff8200;fill-opacity:1;stroke:none;stroke-width:0.29641661;stroke-miterlimit:4;stroke-dasharray:none;stroke-opacity:1" />
      <rect
         y="28.148853"
         x="21.848265"
         height="4.000001"
         width="4.000001"
         id="rect3598-0-1-1-9"
         style="fill:#ff8200;fill-opacity:1;stroke:none;stroke-width:0.29641661;stroke-miterlimit:4;stroke-dasharray:none;stroke-opacity:1" />
      <rect
         y="32.148853"
         x="25.848265"
         height="4.000001"
         width="4.000001"
         id="rect3598-6-6-5-7-7"
         style="fill:#ff8200;fill-opacity:1;stroke:none;stroke-width:0.29641661;stroke-miterlimit:4;stroke-dasharray:none;stroke-opacity:1" />
      <rect
         y="36.148853"
         x="21.848265"
         height="4.000001"
         width="4.000001"
         id="rect3598-1-3-0-1-6"
         style="fill:#ff8200;fill-opacity:1;stroke:none;stroke-width:0.29641661;stroke-miterlimit:4;stroke-dasharray:none;stroke-opacity:1" />
      <rect
         y="40.148853"
         x="25.848265"
         height="4.000001"
         width="4.000001"
         id="rect3598-4-4-3-2-6"
         style="fill:#ff8200;fill-opacity:1;stroke:none;stroke-width:0.29641661;stroke-miterlimit:4;stroke-dasharray:none;stroke-opacity:1" />
      <rect
         y="44.148853"
         x="21.848265"
         height="4.000001"
         width="4.000001"
         id="rect3598-11-6-8-5"
         style="fill:#ff8200;fill-opacity:1;stroke:none;stroke-width:0.29641661;stroke-miterlimit:4;stroke-dasharray:none;stroke-opacity:1" />
      <rect
         y="48.148853"
         x="25.848265"
         height="4.000001"
         width="4.000001"
         id="rect3598-6-0-0-3-31"
         style="fill:#ff8200;fill-opacity:1;stroke:none;stroke-width:0.29641661;stroke-miterlimit:4;stroke-dasharray:none;stroke-opacity:1" />
      <rect
         y="52.148861"
         x="21.848265"
         height="4.000001"
         width="4.000001"
         id="rect3598-1-2-3-6-4"
         style="fill:#ff8200;fill-opacity:1;stroke:none;stroke-width:0.29641661;stroke-miterlimit:4;stroke-dasharray:none;stroke-opacity:1" />
      <rect
         y="56.148853"
         x="25.848265"
         height="4.000001"
         width="4.000001"
         id="rect3598-4-6-0-3-3"
         style="fill:#ff8200;fill-opacity:1;stroke:none;stroke-width:0.29641661;stroke-miterlimit:4;stroke-dasharray:none;stroke-opacity:1" />
    </g>
    <g
       transform="translate(63.021649,125.72615)"
       id="g4106"
       style="fill:#ff8200;fill-opacity:1">
      <rect
         y="60.148827"
         x="134.39415"
         height="4.000001"
         width="4.000001"
         id="rect3598-1-0-6"
         style="fill:#ff8200;fill-opacity:1;stroke:none;stroke-width:0.29641661;stroke-miterlimit:4;stroke-dasharray:none;stroke-opacity:1" />
      <rect
         y="64.148842"
         x="138.39415"
         height="4.000001"
         width="4.000001"
         id="rect3598-4-68-9"
         style="fill:#ff8200;fill-opacity:1;stroke:none;stroke-width:0.29641661;stroke-miterlimit:4;stroke-dasharray:none;stroke-opacity:1" />
      <rect
         y="68.148849"
         x="134.39415"
         height="4.000001"
         width="4.000001"
         id="rect3598-0-1-17"
         style="fill:#ff8200;fill-opacity:1;stroke:none;stroke-width:0.29641661;stroke-miterlimit:4;stroke-dasharray:none;stroke-opacity:1" />
      <rect
         y="72.148842"
         x="138.39415"
         height="4.000001"
         width="4.000001"
         id="rect3598-6-6-5-08"
         style="fill:#ff8200;fill-opacity:1;stroke:none;stroke-width:0.29641661;stroke-miterlimit:4;stroke-dasharray:none;stroke-opacity:1" />
      <rect
         y="76.148849"
         x="134.39415"
         height="4.000001"
         width="4.000001"
         id="rect3598-1-3-0-47"
         style="fill:#ff8200;fill-opacity:1;stroke:none;stroke-width:0.29641661;stroke-miterlimit:4;stroke-dasharray:none;stroke-opacity:1" />
      <rect
         y="80.148842"
         x="138.39415"
         height="4.000001"
         width="4.000001"
         id="rect3598-4-4-3-39"
         style="fill:#ff8200;fill-opacity:1;stroke:none;stroke-width:0.29641661;stroke-miterlimit:4;stroke-dasharray:none;stroke-opacity:1" />
      <rect
         y="84.148849"
         x="134.39415"
         height="4.000001"
         width="4.000001"
         id="rect3598-11-6-3"
         style="fill:#ff8200;fill-opacity:1;stroke:none;stroke-width:0.29641661;stroke-miterlimit:4;stroke-dasharray:none;stroke-opacity:1" />
      <rect
         y="88.148849"
         x="138.39415"
         height="4.000001"
         width="4.000001"
         id="rect3598-6-0-0-1"
         style="fill:#ff8200;fill-opacity:1;stroke:none;stroke-width:0.29641661;stroke-miterlimit:4;stroke-dasharray:none;stroke-opacity:1" />
      <rect
         y="92.148849"
         x="134.39415"
         height="4.000001"
         width="4.000001"
         id="rect3598-1-2-3-14"
         style="fill:#ff8200;fill-opacity:1;stroke:none;stroke-width:0.29641661;stroke-miterlimit:4;stroke-dasharray:none;stroke-opacity:1" />
      <rect
         y="96.148849"
         x="138.39415"
         height="4.000001"
         width="4.000001"
         id="rect3598-4-6-0-5"
         style="fill:#ff8200;fill-opacity:1;stroke:none;stroke-width:0.29641661;stroke-miterlimit:4;stroke-dasharray:none;stroke-opacity:1" />
      <rect
         y="20.148827"
         x="134.39415"
         height="4.000001"
         width="4.000001"
         id="rect3598-1-0-8-3"
         style="fill:#ff8200;fill-opacity:1;stroke:none;stroke-width:0.29641661;stroke-miterlimit:4;stroke-dasharray:none;stroke-opacity:1" />
      <rect
         y="24.148827"
         x="138.39415"
         height="4.000001"
         width="4.000001"
         id="rect3598-4-68-1-0"
         style="fill:#ff8200;fill-opacity:1;stroke:none;stroke-width:0.29641661;stroke-miterlimit:4;stroke-dasharray:none;stroke-opacity:1" />
      <rect
         y="28.148827"
         x="134.39415"
         height="4.000001"
         width="4.000001"
         id="rect3598-0-1-1-8"
         style="fill:#ff8200;fill-opacity:1;stroke:none;stroke-width:0.29641661;stroke-miterlimit:4;stroke-dasharray:none;stroke-opacity:1" />
      <rect
         y="32.148827"
         x="138.39415"
         height="4.000001"
         width="4.000001"
         id="rect3598-6-6-5-7-5"
         style="fill:#ff8200;fill-opacity:1;stroke:none;stroke-width:0.29641661;stroke-miterlimit:4;stroke-dasharray:none;stroke-opacity:1" />
      <rect
         y="36.148827"
         x="134.39415"
         height="4.000001"
         width="4.000001"
         id="rect3598-1-3-0-1-2"
         style="fill:#ff8200;fill-opacity:1;stroke:none;stroke-width:0.29641661;stroke-miterlimit:4;stroke-dasharray:none;stroke-opacity:1" />
      <rect
         y="40.148827"
         x="138.39415"
         height="4.000001"
         width="4.000001"
         id="rect3598-4-4-3-2-7"
         style="fill:#ff8200;fill-opacity:1;stroke:none;stroke-width:0.29641661;stroke-miterlimit:4;stroke-dasharray:none;stroke-opacity:1" />
      <rect
         y="44.148827"
         x="134.39415"
         height="4.000001"
         width="4.000001"
         id="rect3598-11-6-8-67"
         style="fill:#ff8200;fill-opacity:1;stroke:none;stroke-width:0.29641661;stroke-miterlimit:4;stroke-dasharray:none;stroke-opacity:1" />
      <rect
         y="48.148827"
         x="138.39415"
         height="4.000001"
         width="4.000001"
         id="rect3598-6-0-0-3-6"
         style="fill:#ff8200;fill-opacity:1;stroke:none;stroke-width:0.29641661;stroke-miterlimit:4;stroke-dasharray:none;stroke-opacity:1" />
      <rect
         y="52.148834"
         x="134.39415"
         height="4.000001"
         width="4.000001"
         id="rect3598-1-2-3-6-3"
         style="fill:#ff8200;fill-opacity:1;stroke:none;stroke-width:0.29641661;stroke-miterlimit:4;stroke-dasharray:none;stroke-opacity:1" />
      <rect
         y="56.148827"
         x="138.39415"
         height="4.000001"
         width="4.000001"
         id="rect3598-4-6-0-3-4"
         style="fill:#ff8200;fill-opacity:1;stroke:none;stroke-width:0.29641661;stroke-miterlimit:4;stroke-dasharray:none;stroke-opacity:1" />
    </g>
    <g
       id="g773"
       transform="translate(63.021649,125.72615)">
      <path
         d="m 107.05976,60.258025 c 0,11.256504 -11.100693,20.382924 -24.795329,20.382924 -13.694641,0 -24.795623,-9.12642 -24.795623,-20.382924 0,-11.256255 11.100982,-20.382421 24.795623,-20.382421 13.694636,0 24.795329,9.126166 24.795329,20.382421"
         style="fill:#ff8200;fill-opacity:1;fill-rule:nonzero;stroke:none;stroke-width:0.0498616"
         id="path94-2"
         inkscape:connector-curvature="0" />
      <path
         d="m 91.384016,42.183697 0.726481,-0.109197 4.014609,1.925655 -0.0728,0.708531 -4.668294,-2.524989"
         style="fill:#231f20;fill-opacity:1;fill-rule:nonzero;stroke:none;stroke-width:0.0498616"
         id="path96-5"
         inkscape:connector-curvature="0" />
      <path
         d="m 57.177017,60.366722 c 0,-11.998691 11.506911,-21.761093 25.6501,-21.761093 14.143143,0 25.650203,9.762402 25.650203,21.761093 0,12.000293 -11.50706,21.762642 -25.650203,21.762642 -14.143189,0 -25.6501,-9.762349 -25.6501,-21.762642 m -3.049533,0 c 0,13.683122 12.873615,24.814172 28.699633,24.814172 15.825972,0 28.701733,-11.13105 28.701733,-24.814172 0,-13.68152 -12.875761,-24.814119 -28.701733,-24.814119 -15.826018,0 -28.699633,11.132599 -28.699633,24.814119"
         style="fill:#656263;fill-opacity:1;fill-rule:nonzero;stroke:none;stroke-width:0.0498616"
         id="path98-8"
         inkscape:connector-curvature="0" />
      <path
         d="m 56.087092,59.930935 c 0,-11.998196 11.508654,-21.762593 25.649853,-21.762593 14.145333,0 25.649905,9.764397 25.649905,21.762593 0,12.000588 -11.504572,21.762737 -25.649905,21.762737 -14.141199,0 -25.649853,-9.762149 -25.649853,-21.762737 m -3.05173,0 c 0,13.683417 12.875611,24.81422 28.701583,24.81422 15.826171,0 28.701435,-11.130803 28.701435,-24.81422 0,-13.683022 -12.875264,-24.814122 -28.701435,-24.814122 -15.825972,0 -28.701583,11.1311 -28.701583,24.814122"
         style="fill:#0f0d0c;fill-opacity:1;fill-rule:nonzero;stroke:none;stroke-width:0.0498616"
         id="path100-3"
         inkscape:connector-curvature="0" />
      <path
         d="m 58.035387,60.203674 c 0,-11.016419 10.740082,-19.978541 23.939197,-19.978541 13.199162,0 23.937356,8.962122 23.937356,19.978541 0,11.015378 -10.738194,19.979145 -23.937356,19.979145 -13.199115,0 -23.939197,-8.963767 -23.939197,-19.979145 m -2.419687,0 c 0,12.350322 11.824825,22.398826 26.358884,22.398826 14.533959,0 26.358636,-10.048504 26.358636,-22.398826 0,-12.349714 -11.824677,-22.398324 -26.358636,-22.398324 -14.534059,0 -26.358884,10.04861 -26.358884,22.398324"
         style="fill:#bdbcbc;fill-opacity:1;fill-rule:nonzero;stroke:none;stroke-width:0.0498616"
         id="path102-5"
         inkscape:connector-curvature="0" />
      <path
         d="m 57.577257,59.966335 c 0,-10.915697 10.642958,-19.799041 23.724196,-19.799041 13.082986,0 23.725937,8.883344 23.725937,19.799041 0,10.919837 -10.642951,19.801433 -23.725937,19.801433 -13.081238,0 -23.724196,-8.881596 -23.724196,-19.801433 m -2.397049,0 c 0,12.241773 11.718072,22.198482 26.121245,22.198482 14.404815,0 26.122787,-9.956709 26.122787,-22.198482 0,-12.239523 -11.717972,-22.196387 -26.122787,-22.196387 -14.403173,0 -26.121245,9.956864 -26.121245,22.196387"
         style="fill:#656263;fill-opacity:1;fill-rule:nonzero;stroke:none;stroke-width:0.0498616"
         id="path104-5"
         inkscape:connector-curvature="0" />
      <path
         d="M 105.97177,57.260847 C 104.90773,48.682159 99.088881,44.916609 95.652418,43.420761 l 0.250307,0.951359 c -1.434024,-0.912467 -3.548952,-1.884767 -4.349278,-2.241775 -2.038093,-0.323602 -4.003142,0.08975 -4.003142,0.08975 -1.907207,-1.035625 -3.324523,-0.927426 -3.324523,-0.927426 l -6.920287,0.164543 c -3.432824,0.162549 -4.850187,1.525765 -4.850187,1.525765 L 62.427491,49.52183 c -1.090173,0.60033 -1.634161,1.417063 -1.634161,1.417063 l -1.308867,2.616238 c -1.307124,1.52527 -1.144277,3.543163 -1.144277,3.543163 -2.124151,0.707041 -1.688459,6.157411 -1.688459,6.157411 -0.545937,0.218394 -2.61599,2.723939 -2.61599,2.723939 -2.942981,3.05173 -0.05412,5.667521 -0.05412,5.667521 1.469771,7.084828 7.355733,5.994656 7.355733,5.994656 2.943228,2.180298 5.450522,0.545984 5.450522,0.545984 2.615985,-0.272892 3.37892,-1.035826 4.412746,-2.288593 1.035974,-1.254722 2.290496,-2.071802 2.290496,-2.071802 -0.600088,1.961357 3.541567,6.430201 3.541567,6.430201 16.512166,5.231775 30.464889,-10.680305 28.939119,-22.996764"
         style="fill:#231f20;fill-opacity:1;fill-rule:nonzero;stroke:none;stroke-width:0.0498616"
         id="path106-7"
         inkscape:connector-curvature="0" />
      <path
         d="m 64.100397,49.781106 c 0,0 1.16801,0.365988 1.795017,2.621227 0,0 0.800479,-0.321608 1.782156,-0.326095 0,0 1.912041,-3.609481 4.851182,-4.660067 0,0 -3.61636,-0.218889 -5.286922,1.956569 l -0.435492,0.02644 c 0,0 -1.606693,-0.394904 -2.705941,0.381936"
         style="fill:#ffffff;fill-opacity:1;fill-rule:nonzero;stroke:none;stroke-width:0.0498616"
         id="path108-1"
         inkscape:connector-curvature="0" />
      <path
         d="m 83.790644,53.936572 2.942981,0.708537 1.41622,6.757741 c 0,0 -4.85004,4.740837 -1.361869,13.18809 0,0 -5.776518,-5.722213 -0.05436,-13.842276 l -0.981029,-5.122779 c 0,0 -1.907407,-0.490638 -1.961952,-1.689313"
         style="fill:#656263;fill-opacity:1;fill-rule:nonzero;stroke:none;stroke-width:0.0498616"
         id="path110-0"
         inkscape:connector-curvature="0" />
      <path
         d="m 84.77152,42.220096 c 0,0 -5.886209,0.435792 -8.719145,3.051529 0,0 0.599682,-1.144323 2.832936,-2.615737 l -6.212057,3.37862 3.487764,-3.160727 -5.830862,3.487817 3.323774,-2.670583 -4.577142,2.507041 3.977654,-2.615744 c 0,0 2.125553,-1.525264 3.924658,-1.416565 l 7.79242,0.05435"
         style="fill:#656263;fill-opacity:1;fill-rule:nonzero;stroke:none;stroke-width:0.0498616"
         id="path112-67"
         inkscape:connector-curvature="0" />
      <path
         d="m 97.63292,47.288028 c 0,0 2.45169,2.724935 2.83364,4.959237 0,0 1.74366,2.397844 2.94283,6.975634 0,0 -0.38144,-8.120458 -5.77647,-11.934871"
         style="fill:#656263;fill-opacity:1;fill-rule:nonzero;stroke:none;stroke-width:0.0498616"
         id="path114-9"
         inkscape:connector-curvature="0" />
      <path
         d="m 57.795998,71.321317 c 0,0 0.435492,2.179498 2.342899,2.779185 0,0 -1.634715,-1.471714 -2.342899,-2.779185"
         style="fill:#656263;fill-opacity:1;fill-rule:nonzero;stroke:none;stroke-width:0.0498616"
         id="path116-4"
         inkscape:connector-curvature="0" />
      <path
         d="m 53.599644,68.268792 c 0,0 0.871237,-1.906712 4.631846,-1.961557 l 0.818082,-1.689313 c 0,0 -4.959684,0.381441 -5.449928,3.65087"
         style="fill:#656263;fill-opacity:1;fill-rule:nonzero;stroke:none;stroke-width:0.0498616"
         id="path118-4"
         inkscape:connector-curvature="0" />
      <path
         d="m 57.577657,62.001684 -0.490838,0.599835 c 0,0 -0.381341,-4.142003 1.144671,-4.741338 l 0.435739,0.817728 c 0,0 -1.198421,0.654187 -1.089572,3.323775"
         style="fill:#656263;fill-opacity:1;fill-rule:nonzero;stroke:none;stroke-width:0.0498616"
         id="path120-9"
         inkscape:connector-curvature="0" />
      <path
         d="m 54.089888,70.667084 c 0,0 0.763477,0.32719 1.253167,-0.05453 0,0 0.05447,-1.035421 0.599688,-0.272291 0.544388,0.762729 -1.416368,1.362617 -1.852855,0.326842"
         style="fill:#656263;fill-opacity:1;fill-rule:nonzero;stroke:none;stroke-width:0.0498616"
         id="path122-74"
         inkscape:connector-curvature="0" />
      <path
         d="m 55.28891,71.647912 h -0.218347 c 0,0 0.381341,5.450122 6.540248,5.177425 l -0.163996,-0.272639 c 0,0 -4.687192,0.38094 -6.157905,-4.904786"
         style="fill:#bdbcbc;fill-opacity:1;fill-rule:nonzero;stroke:none;stroke-width:0.0498616"
         id="path124-6"
         inkscape:connector-curvature="0" />
      <path
         d="m 61.28282,69.959047 c 0,0 0.763677,0.05394 0.763677,0.980481 0,0.926725 0.816886,3.869158 4.741344,3.760262 3.923456,-0.10885 5.068327,-2.397597 6.049409,-4.849787 0.980676,-2.452796 2.287599,-6.594298 6.102606,-6.321553 0,0 2.235198,2.070253 0.763483,4.577789 -1.472067,2.506293 -3.760662,2.560845 -3.760662,2.560845 0,0 -2.670088,0.871979 -4.687139,2.997131 -2.015155,2.125347 -6.593645,2.670684 -9.754372,1.09032 0,0 -1.634767,-0.163595 -0.218346,1.798163 1.417516,1.961703 4.633041,1.961703 4.959631,0.708382 0,0 2.834337,1.035374 5.013087,-2.125351 2.180246,-3.160379 7.684318,-4.196201 7.684318,-4.196201 0,0 3.868964,-0.544541 3.924457,-5.340825 0.05436,-4.795688 -0.926524,-2.670088 2.506894,-5.449374 0,0 -1.417369,-1.962058 -2.834137,-2.72494 -1.417316,-0.762883 0.108903,-0.163048 0.108903,-0.163048 l -0.653839,-3.70621 c 0,0 -5.831116,-3.106376 -7.084436,3.597014 0,0 -0.03604,1.361722 -4.650191,1.361722 0,0 -3.960505,-3.923109 -7.230328,-1.634461 l -0.707984,0.980775 c 0,0 3.377919,-2.343493 6.594593,0.653686 L 68.095559,58.40517 c 0,0 -1.090573,-0.544989 -2.506941,0.817729 -1.416368,1.362717 -2.125747,2.833636 -1.79871,3.651365 0,0 -1.64932,-0.942885 -4.248556,-0.660665 -0.461816,0.04988 -1.541818,1.186702 -0.407465,1.04061 1.239905,-0.159061 2.809597,-0.209919 3.947837,0.274241 0,0 -1.362417,1.143823 0.05436,2.50604 1.417316,1.362717 -1.470913,3.978508 -1.853255,3.924557"
         style="fill:#ffffff;fill-opacity:1;fill-rule:nonzero;stroke:none;stroke-width:0.0498616"
         id="path126-1"
         inkscape:connector-curvature="0" />
      <path
         d="m 62.754687,68.596383 c 0,0 -0.272698,4.086951 3.706111,4.523043 3.978054,0.435887 6.157905,-2.888082 6.157905,-2.888082 0,0 -1.144671,5.340472 -7.411226,4.305051 0,0 -2.725488,-0.544789 -3.16098,-3.270024 0,0 0.108502,-1.089725 -0.763677,-1.307324 0,0 1.09052,-0.545337 1.471867,-1.362664"
         style="fill:#bdbcbc;fill-opacity:1;fill-rule:nonzero;stroke:none;stroke-width:0.0498616"
         id="path128-7"
         inkscape:connector-curvature="0" />
      <path
         d="m 63.004988,71.474394 c 0.235649,0.231403 0.333828,0.515567 0.218347,0.632991 -0.116476,0.118219 -0.401835,0.02668 -0.637484,-0.205679 -0.236692,-0.231356 -0.334617,-0.514972 -0.219337,-0.633391 0.116476,-0.117825 0.401636,-0.02568 0.638474,0.206079"
         style="fill:#231f20;fill-opacity:1;fill-rule:nonzero;stroke:none;stroke-width:0.0498616"
         id="path130-8"
         inkscape:connector-curvature="0" />
      <path
         d="m 64.319491,72.804898 c 0.25943,0.14879 0.403779,0.385829 0.320412,0.529183 -0.08257,0.143748 -0.359157,0.13906 -0.618038,-0.0096 -0.259029,-0.148984 -0.403726,-0.386229 -0.321154,-0.529925 0.08237,-0.143354 0.359751,-0.138719 0.61878,0.01031"
         style="fill:#231f20;fill-opacity:1;fill-rule:nonzero;stroke:none;stroke-width:0.0498616"
         id="path132-6"
         inkscape:connector-curvature="0" />
      <path
         d="m 65.959488,73.55357 c 0.29563,0.03469 0.519807,0.211162 0.498618,0.395004 -0.02144,0.184042 -0.279523,0.303857 -0.576355,0.269205 -0.29722,-0.03469 -0.521002,-0.211562 -0.49976,-0.394656 0.0222,-0.183842 0.280271,-0.304606 0.577497,-0.269553"
         style="fill:#231f20;fill-opacity:1;fill-rule:nonzero;stroke:none;stroke-width:0.0498616"
         id="path134-0"
         inkscape:connector-curvature="0" />
      <path
         d="m 64.349709,70.951442 c 0.211509,0.207228 0.298769,0.461022 0.195155,0.566779 -0.104009,0.105952 -0.359204,0.02338 -0.570713,-0.183889 -0.211315,-0.207228 -0.29877,-0.461222 -0.194961,-0.566979 0.103814,-0.105558 0.358956,-0.02332 0.570519,0.184089"
         style="fill:#231f20;fill-opacity:1;fill-rule:nonzero;stroke:none;stroke-width:0.0498616"
         id="path136-1"
         inkscape:connector-curvature="0" />
      <path
         d="m 65.525545,72.14169 c 0.232899,0.133578 0.361094,0.34534 0.28705,0.473482 -0.0734,0.128549 -0.321955,0.124656 -0.553711,-0.0086 -0.231957,-0.13323 -0.359952,-0.34514 -0.286308,-0.473883 0.074,-0.128142 0.32116,-0.124256 0.552969,0.009"
         style="fill:#231f20;fill-opacity:1;fill-rule:nonzero;stroke:none;stroke-width:0.0498616"
         id="path138-4"
         inkscape:connector-curvature="0" />
      <path
         d="m 66.992519,72.811877 c 0.265866,0.03098 0.465909,0.18913 0.446263,0.35352 -0.01837,0.164196 -0.249306,0.271697 -0.514972,0.240932 -0.265908,-0.03115 -0.465704,-0.189125 -0.447606,-0.353321 0.01967,-0.16439 0.250454,-0.272291 0.516315,-0.241131"
         style="fill:#231f20;fill-opacity:1;fill-rule:nonzero;stroke:none;stroke-width:0.0498616"
         id="path140-7"
         inkscape:connector-curvature="0" />
      <path
         d="m 65.802277,70.582515 c 0.196751,0.153278 0.289046,0.365988 0.203535,0.475085 -0.08532,0.109044 -0.31338,0.07285 -0.510284,-0.08067 -0.197104,-0.153278 -0.288051,-0.365936 -0.202587,-0.474832 0.08436,-0.10925 0.312432,-0.07285 0.509336,0.08042"
         style="fill:#231f20;fill-opacity:1;fill-rule:nonzero;stroke:none;stroke-width:0.0498616"
         id="path142-8"
         inkscape:connector-curvature="0" />
      <path
         d="m 66.86652,71.39297 c 0.241332,0.06312 0.405528,0.235296 0.366583,0.384481 -0.03881,0.149584 -0.265661,0.218741 -0.506993,0.155615 -0.241927,-0.06347 -0.40687,-0.236044 -0.367183,-0.384881 0.03881,-0.149384 0.266861,-0.21814 0.507593,-0.155215"
         style="fill:#231f20;fill-opacity:1;fill-rule:nonzero;stroke:none;stroke-width:0.0498616"
         id="path144-0"
         inkscape:connector-curvature="0" />
      <path
         d="m 66.941312,69.70705 c 0.196904,0.153471 0.287904,0.365381 0.202588,0.474631 -0.08436,0.109097 -0.313428,0.07324 -0.510332,-0.08043 -0.195909,-0.153472 -0.288251,-0.365582 -0.20254,-0.474685 0.08512,-0.109244 0.31318,-0.0732 0.510284,0.08048"
         style="fill:#231f20;fill-opacity:1;fill-rule:nonzero;stroke:none;stroke-width:0.0498616"
         id="path146-9"
         inkscape:connector-curvature="0" />
      <path
         d="m 67.980232,70.611737 c 0.208818,0.05495 0.350175,0.203135 0.316519,0.332279 -0.0341,0.128743 -0.230061,0.188924 -0.438831,0.134426 -0.208624,-0.05495 -0.350376,-0.203388 -0.316325,-0.332479 0.03392,-0.128943 0.230013,-0.188376 0.438637,-0.134226"
         style="fill:#231f20;fill-opacity:1;fill-rule:nonzero;stroke:none;stroke-width:0.0498616"
         id="path148-9"
         inkscape:connector-curvature="0" />
      <path
         d="m 59.430713,55.653311 c 0,0 -0.163996,0.681105 0.489837,1.389637 0.654086,0.708537 0.736458,2.533966 0.491038,2.997184 0,0 -0.245419,-1.198675 -0.818028,-1.825435 -0.572262,-0.62676 -0.926331,-1.82593 -0.162847,-2.561386"
         style="fill:#ffffff;fill-opacity:1;fill-rule:nonzero;stroke:none;stroke-width:0.0498616"
         id="path150-8"
         inkscape:connector-curvature="0" />
      <path
         d="m 59.92055,54.454135 0.709379,-0.70803 1.416568,0.899004 0.680911,2.616232 c 0,0 1.008155,-1.553685 0.87238,-3.07945 -0.136917,-1.525765 -0.163995,-1.989478 -0.163995,-1.989478 0,0 -1.116598,-1.58011 -1.879533,-0.789807 0,0 1.606888,0.08178 1.416768,3.3512 0,0 -0.163996,-2.588318 -1.416768,-2.397845 -1.254316,0.190968 -1.63571,2.098174 -1.63571,2.098174"
         style="fill:#bdbcbc;fill-opacity:1;fill-rule:nonzero;stroke:none;stroke-width:0.0498616"
         id="path152-6"
         inkscape:connector-curvature="0" />
      <path
         d="m 60.46594,53.364663 c 0,0 1.417563,-0.716511 2.207318,2.043823 0,0 0.217198,-2.309589 -0.626761,-2.893464 -0.845101,-0.583381 -1.661981,0.55745 -1.580557,0.849641"
         style="fill:#ffffff;fill-opacity:1;fill-rule:nonzero;stroke:none;stroke-width:0.0498616"
         id="path154-2"
         inkscape:connector-curvature="0" />
      <path
         d="m 60.493212,55.789433 c 0,0 0.354069,2.506541 1.661787,0.95385 l 0.24562,0.490638 c 0,0 -0.980882,0.926425 -1.798911,-0.05483 0,0 -0.435539,-0.817728 -0.108496,-1.389636"
         style="fill:#ffffff;fill-opacity:1;fill-rule:nonzero;stroke:none;stroke-width:0.0498616"
         id="path156-17"
         inkscape:connector-curvature="0" />
      <path
         d="m 61.665156,56.430151 c 0,0.127647 -0.103808,0.231355 -0.231803,0.231355 -0.128343,0 -0.231957,-0.103708 -0.231957,-0.231355 0,-0.128143 0.103614,-0.231857 0.231957,-0.231857 0.127995,0 0.231803,0.103714 0.231803,0.231857"
         style="fill:#ffffff;fill-opacity:1;fill-rule:nonzero;stroke:none;stroke-width:0.0498616"
         id="path158-8"
         inkscape:connector-curvature="0" />
      <path
         d="m 62.646038,65.381305 c 0,0 0.899452,-2.807206 3.515042,-0.545484 0,0 -0.599534,-0.899505 -1.39029,-1.607542 0,0 -0.490044,-3.841832 3.842085,-4.577789 l 1.280593,1.716732 2.425518,0.08177 c 0,0 -2.261522,-0.65418 -3.269476,-1.825429 l 1.280646,-0.05483 c 0,0 -4.633042,-5.094852 -8.010961,-0.708531 0,0 2.969653,-2.152525 6.484748,0.572409 0,0 -1.717333,-0.708531 -3.106829,0.708537 -1.389289,1.416568 -2.261321,2.915408 -1.907206,3.733136 0,0 -0.51711,-0.709032 -3.515042,-0.709032 -2.996979,0 -2.969906,1.444489 -2.969906,1.444489 0,0 0.681158,-0.354016 2.861209,-0.354016 2.180099,0 2.806859,0.354016 2.806859,0.354016 0,0 -0.953603,0.517563 -0.32699,1.771584"
         style="fill:#bdbcbc;fill-opacity:1;fill-rule:nonzero;stroke:none;stroke-width:0.0498616"
         id="path160-4"
         inkscape:connector-curvature="0" />
      <path
         d="m 77.550367,65.871442 c 0,0 0.299717,-0.926424 0.354062,-1.362217 l -0.162994,-0.29967 c 0,0 -1.363018,-0.109197 -2.725088,2.316073 l 1.007954,0.299671 1.526066,-0.953857"
         style="fill:#ff8200;fill-opacity:1;fill-rule:nonzero;stroke:none;stroke-width:0.0498616"
         id="path162-8"
         inkscape:connector-curvature="0" />
      <path
         d="m 74.008246,68.514606 0.980828,0.02744 0.736258,-0.872079 v -0.490638 l 0.81688,0.02744 0.818029,-1.144824 -0.02727,-0.762883 -1.144871,-0.02691 -0.517864,0.544989 -0.02727,0.681106 -0.626607,0.02744 c 0,0 -0.926931,1.362217 -1.008102,1.988977"
         style="fill:#ffffff;fill-opacity:1;fill-rule:nonzero;stroke:none;stroke-width:0.0498616"
         id="path164-4"
         inkscape:connector-curvature="0" />
      <path
         d="m 72.782699,71.675185 c 0,0 1.934679,-1.471119 4.168127,-1.880334 l 1.717334,-1.55249 0.08138,-2.098674 -0.681111,-0.02744 -1.907407,2.807006 -1.553085,0.544789 -1.008354,1.226248 -0.517858,0.02727 c 0,0 -0.218347,0.326642 -0.299022,0.953603"
         style="fill:#ff8200;fill-opacity:1;fill-rule:nonzero;stroke:none;stroke-width:0.0498616"
         id="path166-7"
         inkscape:connector-curvature="0" />
      <path
         d="m 74.062544,68.759677 h 1.17215 l 0.980876,-1.253768 h 0.62656 l 0.872426,-1.007706 h 0.353869 v 1.580116 l -0.599482,0.708984 h -0.816886 l -0.08257,0.789808 -1.035227,0.408814 -0.762729,-0.408814 c 0,0 -0.218347,1.38969 -1.581359,1.144471 0,0 -0.02609,-1.526012 0.872374,-1.961905"
         style="fill:#ffffff;fill-opacity:1;fill-rule:nonzero;stroke:none;stroke-width:0.0498616"
         id="path168-8"
         inkscape:connector-curvature="0" />
      <path
         d="m 103.40939,67.887845 c 0,0 -2.50705,-1.962552 -2.343,-9.046388 0.16305,-7.08483 -1.580114,-11.389881 -6.594196,-13.787725 0,0 4.359896,3.978455 4.740842,10.462956 0.381442,6.484996 -0.980781,12.698253 3.269424,14.659958 l 0.92693,-2.288801"
         style="fill:#ffffff;fill-opacity:1;fill-rule:nonzero;stroke:none;stroke-width:0.0498616"
         id="path170-98"
         inkscape:connector-curvature="0" />
      <path
         d="m 94.472194,45.053732 c 0,0 4.522943,4.195854 2.942333,12.098413 0,0 3.651863,3.433471 -1.089973,8.882345 0,0 0.709032,7.684819 -4.305404,11.389785 0,0 3.706064,-0.762934 5.995212,-3.596064 0,0 1.035126,-4.03336 0.545484,-7.73887 0,0 1.361722,4.523191 1.088977,6.485296 l 2.615747,-2.833931 c 0,0 -2.887991,-2.1256 -2.670092,-9.864122 0.218394,-7.738516 -0.599341,-10.899243 -5.122284,-14.822852"
         style="fill:#ff8200;fill-opacity:1;fill-rule:nonzero;stroke:none;stroke-width:0.0498616"
         id="path172-4"
         inkscape:connector-curvature="0" />
      <path
         d="m 79.703339,79.822319 c 0,0 -2.94258,-2.779183 -3.650964,-4.68659 0,0 2.941632,3.814758 5.394375,4.68659 h -1.743411"
         style="fill:#ff8200;fill-opacity:1;fill-rule:nonzero;stroke:none;stroke-width:0.0498616"
         id="path174-4"
         inkscape:connector-curvature="0" />
      <path
         d="m 84.444677,79.767968 c 0,0 -6.103555,-2.397844 -7.520924,-5.340423 l 2.725088,1.79811 c 0,0 5.231528,3.487768 9.48208,2.343491 0,0 -2.506346,1.253173 -4.686244,1.198822"
         style="fill:#ff8200;fill-opacity:1;fill-rule:nonzero;stroke:none;stroke-width:0.0498616"
         id="path176-0"
         inkscape:connector-curvature="0" />
      <path
         d="m 77.196245,73.500815 c 0,0 3.215278,3.542321 8.011167,3.542321 4.795689,0 8.446453,-4.250552 8.446453,-5.776765 0,0 -1.579015,1.144871 -2.451595,1.144871 -0.87238,0 -1.744559,1.252973 -1.744559,1.252973 0,0 -1.907406,3.652159 -4.141603,0.109244 l -1.089772,0.163448 c 0,0 -0.272498,0.654033 -0.708184,0.871779 h 2.180293 c 0,0 -1.308119,0.654434 -2.834132,0.382142 0,0 -1.362069,0.544783 -2.071402,-0.545336 0,0 -0.490037,0.0543 -1.362417,-0.762936 C 78.558468,73.064528 77.1421,72.90168 77.1421,72.90168 l 0.05418,0.599135"
         style="fill:#ff8200;fill-opacity:1;fill-rule:nonzero;stroke:none;stroke-width:0.0498616"
         id="path178-9"
         inkscape:connector-curvature="0" />
      <path
         d="m 77.577586,79.825211 c 0,0 -3.75966,-4.003135 -2.669888,-6.220983 0,0 0.708184,-1.081598 2.506894,-0.649198 0,0 -0.272492,1.244051 2.61579,3.570389 0,0 -2.670141,-1.135896 -3.651965,-2.434292 0,0 1.090526,2.596545 5.068333,5.788435 0,0 -3.48777,-1.731897 -5.394375,-4.652286 0,0 0.108643,2.001043 2.615785,4.922033 l -1.090574,-0.324098"
         style="fill:#ffffff;fill-opacity:1;fill-rule:nonzero;stroke:none;stroke-width:0.0498616"
         id="path180-3"
         inkscape:connector-curvature="0" />
      <path
         d="m 80.248523,73.500815 c 0,0 -1.09052,-0.708231 -0.76333,-1.580211 0.326843,-0.872379 0.981677,0.108697 0.981677,0.108697 0,0 0.490037,0.381941 0.490037,-0.653833 0,-1.035227 0.707984,-1.198822 1.361822,-0.871632 0,0 -0.599287,0.653686 0,0.707984 0.599936,0.05453 0.273093,-1.198822 0.273093,-1.198822 0,0 1.198822,0.327243 2.61559,3.433471 l -1.362223,0.32699 -3.596666,-0.272644"
         style="fill:#656263;fill-opacity:1;fill-rule:nonzero;stroke:none;stroke-width:0.0498616"
         id="path182-7"
         inkscape:connector-curvature="0" />
      <path
         d="m 84.499228,73.228323 c 0,1.174294 -0.890877,2.125152 -1.98923,2.125152 -1.0981,0 -1.988777,-0.950858 -1.988777,-2.125152 0,-1.173693 0.890677,-2.125353 1.988777,-2.125353 1.098353,0 1.98923,0.95166 1.98923,2.125353"
         style="fill:#231f20;fill-opacity:1;fill-rule:nonzero;stroke:none;stroke-width:0.0498616"
         id="path184-54"
         inkscape:connector-curvature="0" />
      <path
         d="m 84.063336,73.228323 c 0,1.174294 -0.829548,2.125152 -1.853056,2.125152 -1.02356,0 -1.852908,-0.950858 -1.852908,-2.125152 0,-1.173693 0.829348,-2.125353 1.852908,-2.125353 1.023508,0 1.853056,0.95166 1.853056,2.125353"
         style="fill:#ffffff;fill-opacity:1;fill-rule:nonzero;stroke:none;stroke-width:0.0498616"
         id="path186-0"
         inkscape:connector-curvature="0" />
      <path
         d="m 66.842186,58.005278 c 0,0 1.016882,-0.217893 2.761288,2.616239 0,0 4.359148,2.979729 8.864642,-0.362991 0,0 1.307124,-0.726982 2.68864,0 0,0 -1.817255,0.580884 -2.471294,3.487316 l 0.872179,1.308373 h 0.726735 c 0,0 -1.379572,-3.197629 2.034353,-4.868491 0,0 -2.17965,-1.23557 -4.141402,-0.435786 -1.961757,0.799277 -4.377899,2.633687 -8.038239,0.480662 0,0 -1.698035,-3.024605 -3.296902,-2.225322"
         style="fill:#231f20;fill-opacity:1;fill-rule:nonzero;stroke:none;stroke-width:0.0498616"
         id="path188-7"
         inkscape:connector-curvature="0" />
      <path
         d="m 67.523297,56.797629 -1.480642,-1.26249 c 0,0 2.978634,-0.798783 3.706317,-4.032806 l 4.577489,-1.852861 7.556977,3.742611 c 0,0 -7.938318,5.648823 -14.360141,3.405546"
         style="fill:#bdbcbc;fill-opacity:1;fill-rule:nonzero;stroke:none;stroke-width:0.0498616"
         id="path190-0"
         inkscape:connector-curvature="0" />
      <path
         d="m 67.823268,56.443613 -1.417569,0.762883 c 0,0 2.61559,0.762382 3.487769,3.160726 0,0 4.251501,2.615738 8.610502,-0.435792 0,0 2.288941,-1.307866 5.341219,1.525765 l 1.526018,-1.307866 c 0,0 -1.744158,-2.070754 -2.834137,-2.72494 l -0.653632,-4.032306 c 0,0 -2.180099,-1.090473 -4.033354,-0.436787 -1.853256,0.654186 -2.796888,2.070754 -2.761088,3.270424 0.03587,1.198669 -4.831489,2.288147 -4.831489,2.288147 0,0 -1.56226,-2.070254 -2.434239,-2.070254"
         style="fill:#bdbcbc;fill-opacity:1;fill-rule:nonzero;stroke:none;stroke-width:0.0498616"
         id="path192-8"
         inkscape:connector-curvature="0" />
      <path
         d="m 67.932712,56.734308 2.324795,1.779559 3.269423,-0.181498 c 0,0 1.489417,-0.0364 1.562066,-2.106649 0.07265,-2.071249 2.107249,-3.088926 2.107249,-3.088926 l -2.179898,-0.907479 -3.523817,1.380167 c 0,0 -1.198222,3.269924 -3.559818,3.124826"
         style="fill:#231f20;fill-opacity:1;fill-rule:nonzero;stroke:none;stroke-width:0.0498616"
         id="path194-1"
         inkscape:connector-curvature="0" />
      <path
         d="m 74.420552,54.216296 c 0.228865,0.50211 -0.07674,1.133358 -0.683055,1.410584 -0.605371,0.277733 -1.283932,0.09524 -1.512602,-0.40637 -0.230008,-0.502104 0.07559,-1.133352 0.682306,-1.410584 0.606319,-0.277728 1.283538,-0.09573 1.513351,0.40637"
         style="fill:#ff8200;fill-opacity:1;fill-rule:nonzero;stroke:none;stroke-width:0.0498616"
         id="path196-5"
         inkscape:connector-curvature="0" />
      <path
         d="m 73.799428,54.563332 c 0,0.165545 -0.146446,0.29967 -0.326843,0.29967 -0.18035,0 -0.326796,-0.134125 -0.326796,-0.29967 0,-0.165538 0.146446,-0.300165 0.326796,-0.300165 0.180397,0 0.326843,0.134627 0.326843,0.300165"
         style="fill:#ffffff;fill-opacity:1;fill-rule:nonzero;stroke:none;stroke-width:0.0498616"
         id="path198-5"
         inkscape:connector-curvature="0" />
      <path
         d="m 78.612813,53.282886 c 0,0 -2.288942,1.198675 -2.397243,3.05153 -0.108697,1.852855 -0.545337,2.942834 -3.488171,2.942834 h -2.397243 l 4.032158,0.435786 c 0,0 3.269623,0.218394 2.506894,-3.160726 0,0 -0.762335,-0.871579 1.743605,-3.269424"
         style="fill:#656263;fill-opacity:1;fill-rule:nonzero;stroke:none;stroke-width:0.0498616"
         id="path200-9"
         inkscape:connector-curvature="0" />
      <path
         d="m 80.432018,53.550149 c 0.139608,0.333073 0.07284,0.678113 -0.149438,0.771857 -0.221238,0.09274 -0.51532,-0.101718 -0.654781,-0.434296 -0.138866,-0.334075 -0.0721,-0.679115 0.150333,-0.772359 0.221085,-0.09274 0.514972,0.101718 0.653886,0.434798"
         style="fill:#231f20;fill-opacity:1;fill-rule:nonzero;stroke:none;stroke-width:0.0498616"
         id="path202-1"
         inkscape:connector-curvature="0" />
      <path
         d="m 79.340296,53.246491 c 0,0 -2.942633,2.397344 -2.034206,3.233023 0,0 0.65289,1.163269 -0.109845,2.14405 0,0 3.524618,-3.015629 3.742164,0.690081 0,0 1.053725,0.181498 1.67131,0.726487 l -0.944828,-6.502951 c 0,0 -0.799331,-0.29069 -1.053525,-0.29069 0,0 0.653886,1.162274 -0.32699,1.416568 -0.980675,0.254789 -1.307718,-1.089477 -0.94408,-1.416568"
         style="fill:#ffffff;fill-opacity:1;fill-rule:nonzero;stroke:none;stroke-width:0.0498616"
         id="path204-2"
         inkscape:connector-curvature="0" />
      <path
         d="m 82.611115,57.587937 c 0,0 1.406845,1.711751 0.259035,2.56787 l -0.296826,0.296679 c 0,0 0.889729,0.595347 1.296399,1.004709 l 1.55603,-1.339279 c 0,0 -1.889303,-2.194909 -2.445164,-2.492583 l -0.369474,-0.0374"
         style="fill:#656263;fill-opacity:1;fill-rule:nonzero;stroke:none;stroke-width:0.0498616"
         id="path206-4"
         inkscape:connector-curvature="0" />
      <path
         d="m 66.979109,57.17907 c 0,0 2.097679,0.59934 3.159979,3.05153 L 70.111818,58.814032 67.5233,56.797629 66.979112,57.17907"
         style="fill:#ffffff;fill-opacity:1;fill-rule:nonzero;stroke:none;stroke-width:0.0498616"
         id="path208-5"
         inkscape:connector-curvature="0" />
      <path
         d="m 75.480113,56.30699 c 0,0 0.02709,2.316574 -2.098675,2.316574 l -0.299717,0.517564 c 0,0 2.94258,0.272244 2.997927,-3.025106 l -0.599535,0.190968"
         style="fill:#ffffff;fill-opacity:1;fill-rule:nonzero;stroke:none;stroke-width:0.0498616"
         id="path210-4"
         inkscape:connector-curvature="0" />
      <path
         d="m 69.966317,51.720726 c 0,0 1.417363,5.267876 -2.033605,5.013582 l -1.454565,-1.126373 c 0,0 2.834137,-0.617785 3.48817,-3.887209"
         style="fill:#656263;fill-opacity:1;fill-rule:nonzero;stroke:none;stroke-width:0.0498616"
         id="path212-3"
         inkscape:connector-curvature="0" />
      <path
         d="m 74.39931,49.903766 c 0,0 0.798188,2.14355 3.088131,3.124826 0,0 0.980675,-0.581384 3.378119,0.03592 l -6.46625,-3.160727"
         style="fill:#ffffff;fill-opacity:1;fill-rule:nonzero;stroke:none;stroke-width:0.0498616"
         id="path214-3"
         inkscape:connector-curvature="0" />
      <path
         d="m 81.44675,53.77303 c 0,0 -1.416368,2.507035 0.545384,3.488311 L 81.44675,53.77303"
         style="fill:#bdbcbc;fill-opacity:1;fill-rule:nonzero;stroke:none;stroke-width:0.0498616"
         id="path216-9"
         inkscape:connector-curvature="0" />
      <path
         d="m 70.384307,60.312377 c 0,0 3.815007,1.907206 7.956815,-0.599341 0,0 -3.433424,1.962553 -7.956815,0.599341"
         style="fill:#656263;fill-opacity:1;fill-rule:nonzero;stroke:none;stroke-width:0.0498616"
         id="path218-2"
         inkscape:connector-curvature="0" />
      <path
         d="m 79.921486,63.601246 c 0,0 1.452415,-5.305272 3.923703,-2.144051 l -1.162421,0.980782 0.217399,4.722886 c 0,0 0.363985,2.834037 -3.996358,3.633568 l -0.435693,-0.581785 c 0,0 3.342673,-2.978981 1.45337,-6.6114"
         style="fill:#bdbcbc;fill-opacity:1;fill-rule:nonzero;stroke:none;stroke-width:0.0498616"
         id="path220-6"
         inkscape:connector-curvature="0" />
      <path
         d="m 79.194998,63.601246 c 0,0 2.469893,4.213803 -1.236018,6.248757 l 0.509136,0.362643 c 0,0 4.141603,-2.761088 1.45337,-6.6114 h -0.726488"
         style="fill:#656263;fill-opacity:1;fill-rule:nonzero;stroke:none;stroke-width:0.0498616"
         id="path222-0"
         inkscape:connector-curvature="0" />
      <path
         d="m 82.494439,63.798698 c 0.100121,0.735957 -0.166534,1.379171 -0.594647,1.437009 -0.427913,0.05783 -0.855625,-0.491633 -0.955547,-1.22709 -0.09913,-0.735957 0.166935,-1.379172 0.594647,-1.43751 0.428113,-0.05736 0.855625,0.491633 0.955547,1.227591"
         style="fill:#ffffff;fill-opacity:1;fill-rule:nonzero;stroke:none;stroke-width:0.0498616"
         id="path224-1"
         inkscape:connector-curvature="0" />
      <path
         d="m 82.494439,64.017091 c 0.100121,0.735457 -0.125999,1.373189 -0.504101,1.424548 -0.377849,0.05088 -0.763678,-0.504101 -0.863599,-1.239563 -0.100122,-0.735957 0.126046,-1.373683 0.5033,-1.425043 0.377454,-0.05088 0.764478,0.504101 0.8644,1.240058"
         style="fill:#bdbcbc;fill-opacity:1;fill-rule:nonzero;stroke:none;stroke-width:0.0498616"
         id="path226-5"
         inkscape:connector-curvature="0" />
      <path
         d="m 82.150099,63.945291 c 0.0477,0.350028 -0.06003,0.654681 -0.240384,0.678614 -0.179555,0.02491 -0.364787,-0.23983 -0.412506,-0.590359 -0.04753,-0.351024 0.06113,-0.655682 0.240531,-0.68011 0.18075,-0.02391 0.364987,0.24033 0.412359,0.591855"
         style="fill:#ffffff;fill-opacity:1;fill-rule:nonzero;stroke:none;stroke-width:0.0498616"
         id="path228-4"
         inkscape:connector-curvature="0" />
      <path
         d="m 82.150099,64.163184 c 0.0477,0.350028 -0.06003,0.654687 -0.240384,0.679115 -0.179555,0.02444 -0.364787,-0.23983 -0.412506,-0.59086 -0.04753,-0.350523 0.06113,-0.655181 0.240531,-0.67961 0.18075,-0.02444 0.364987,0.240331 0.412359,0.591355"
         style="fill:#231f20;fill-opacity:1;fill-rule:nonzero;stroke:none;stroke-width:0.0498616"
         id="path230-1"
         inkscape:connector-curvature="0" />
      <path
         d="m 80.357372,68.614333 0.799384,0.944675 0.654033,-0.581184 -1.017878,-1.089979 -0.435539,0.726488"
         style="fill:#231f20;fill-opacity:1;fill-rule:nonzero;stroke:none;stroke-width:0.0498616"
         id="path232-6"
         inkscape:connector-curvature="0" />
      <path
         d="m 79.809892,69.345349 0.474484,0.727082 0.505397,-0.347684 -0.612951,-0.847646 -0.36693,0.468248"
         style="fill:#231f20;fill-opacity:1;fill-rule:nonzero;stroke:none;stroke-width:0.0498616"
         id="path234-8"
         inkscape:connector-curvature="0" />
      <path
         d="m 81.229599,66.57998 c 0,0 1.234822,-0.145598 1.161979,1.017176 -0.07285,1.162521 -0.363644,1.162521 -0.363644,1.162521 0,0 0.799384,-0.508341 0.581785,-2.106901 l -0.07265,-1.380668 c 0,0 -0.218341,1.307872 -1.307471,1.307872"
         style="fill:#ffffff;fill-opacity:1;fill-rule:nonzero;stroke:none;stroke-width:0.0498616"
         id="path236-56"
         inkscape:connector-curvature="0" />
      <path
         d="m 79.91565,63.601246 c 0,0 0.720845,-2.979729 2.631396,-3.124827 0,0 0.900996,0.290695 1.261301,0.980776 0,0 -0.360305,-1.271471 -1.513551,-1.271471 -1.153646,0 -2.811747,1.235076 -3.099798,3.415522 h 0.720652"
         style="fill:#ffffff;fill-opacity:1;fill-rule:nonzero;stroke:none;stroke-width:0.0498616"
         id="path238-2"
         inkscape:connector-curvature="0" />
      <path
         d="m 69.748972,51.175237 4.431997,-1.889256 7.62982,3.705716 c 0,0 -7.33883,-7.774423 1.744359,-6.684945 0,0 -6.104509,-5.158681 -13.806176,4.868485"
         style="fill:#bdbcbc;fill-opacity:1;fill-rule:nonzero;stroke:none;stroke-width:0.0498616"
         id="path240-4"
         inkscape:connector-curvature="0" />
      <path
         d="m 74.39931,49.068087 c 0,0 -0.218341,-3.996405 5.23118,-2.761335 0,0 -3.051282,1.162775 1.23507,6.031259 l -6.46625,-3.269924"
         style="fill:#ffffff;fill-opacity:1;fill-rule:nonzero;stroke:none;stroke-width:0.0498616"
         id="path242-4"
         inkscape:connector-curvature="0" />
      <path
         d="m 78.177327,48.486703 c 0,0 0.363638,1.453464 0.871979,2.179945 0,0 -2.542941,-0.944374 -0.871979,-2.179945"
         style="fill:#231f20;fill-opacity:1;fill-rule:nonzero;stroke:none;stroke-width:0.0498616"
         id="path244-6"
         inkscape:connector-curvature="0" />
      <path
         d="m 83.772741,46.379548 c 0,0 -5.595414,-2.324548 -5.595414,2.107155 0,0 -1.089778,-4.286605 5.232123,-2.542447 l 0.363291,0.435292"
         style="fill:#231f20;fill-opacity:1;fill-rule:nonzero;stroke:none;stroke-width:0.0498616"
         id="path246-8"
         inkscape:connector-curvature="0" />
      <path
         d="m 56.015592,67.015766 c 0,0 1.67171,-0.581384 1.235069,1.307872 0,0 0.363792,-2.398345 4.214652,-0.87208 0,0 2.179103,-0.0723 0.944027,-2.106654 0,0 -4.432197,-2.325543 -6.393748,1.670862"
         style="fill:#bdbcbc;fill-opacity:1;fill-rule:nonzero;stroke:none;stroke-width:0.0498616"
         id="path248-5"
         inkscape:connector-curvature="0" />
      <path
         d="m 61.246967,65.853492 c 0,0.400887 -0.488095,0.726488 -1.089573,0.726488 -0.602626,0 -1.09052,-0.325601 -1.09052,-0.726488 0,-0.401882 0.487894,-0.726982 1.09052,-0.726982 0.601478,0 1.089573,0.3251 1.089573,0.726982"
         style="fill:#ffffff;fill-opacity:1;fill-rule:nonzero;stroke:none;stroke-width:0.0498616"
         id="path250-59"
         inkscape:connector-curvature="0" />
      <path
         d="m 56.959672,68.905175 0.363785,0.944828 c 0,0 4.141856,0.580584 4.287354,-1.307971 0,0 -2.761288,-1.816955 -3.706311,-0.726983 0,0 0.945023,-0.363491 2.834131,1.017277 0,0 -0.799383,1.162574 -2.834131,0.654434 l -0.944828,-0.581585"
         style="fill:#bdbcbc;fill-opacity:1;fill-rule:nonzero;stroke:none;stroke-width:0.0498616"
         id="path252-5"
         inkscape:connector-curvature="0" />
      <path
         d="m 61.756303,65.344904 c 0,0 1.016682,1.307872 -0.799531,1.670862 0,0 2.906933,0.435792 0.799531,-1.670862"
         style="fill:#656263;fill-opacity:1;fill-rule:nonzero;stroke:none;stroke-width:0.0498616"
         id="path254-4"
         inkscape:connector-curvature="0" />
      <path
         d="m 56.378235,66.652776 c 0,0 1.090573,-0.509089 2.762283,0.0723 0,0 -1.017477,-0.145097 -1.598714,0.581384 0,0 -0.218347,-0.726481 -1.163569,-0.653685"
         style="fill:#656263;fill-opacity:1;fill-rule:nonzero;stroke:none;stroke-width:0.0498616"
         id="path256-0"
         inkscape:connector-curvature="0" />
      <path
         d="m 94.298175,40.703804 1.383659,3.513249 c 5.675246,3.619952 9.345556,9.326612 9.345556,15.73632 0,10.917794 -10.642951,19.801333 -23.725937,19.801333 -2.081125,0 -4.102463,-0.226321 -6.028368,-0.648751 l 0.349581,2.516617 c 1.830671,0.345936 3.730297,0.52923 5.678787,0.52923 14.404815,0 26.122787,-9.958506 26.122787,-22.198429 0,-8.221681 -5.28782,-15.414713 -13.126065,-19.249569"
         style="fill:#656263;fill-opacity:1;fill-rule:nonzero;stroke:none;stroke-width:0.0498616"
         id="path258-2"
         inkscape:connector-curvature="0" />
      <path
         d="m 81.718247,49.953129 c -0.333628,0.213411 -0.907032,-0.08676 -1.278456,-0.67014 -0.372613,-0.583875 -0.403578,-1.230082 -0.06896,-1.442993 0.333821,-0.213405 0.907032,0.08676 1.279651,0.670641 0.371618,0.583875 0.402577,1.229587 0.06776,1.442492"
         style="fill:#bdbcbc;fill-opacity:1;fill-rule:nonzero;stroke:none;stroke-width:0.0498616"
         id="path260-0"
         inkscape:connector-curvature="0" />
      <path
         d="m 81.625551,49.67241 c -0.185632,0.117671 -0.572609,-0.15906 -0.865548,-0.618286 -0.293133,-0.459225 -0.380393,-0.927425 -0.195356,-1.045097 0.184437,-0.117671 0.571662,0.15856 0.864748,0.618286 0.293139,0.458725 0.380198,0.926424 0.196156,1.045097"
         style="fill:#231f20;fill-opacity:1;fill-rule:nonzero;stroke:none;stroke-width:0.0498616"
         id="path262-4"
         inkscape:connector-curvature="0" />
      <path
         d="m 83.416281,48.947919 c -0.294682,0.188477 -0.802275,-0.07678 -1.131208,-0.593852 -0.329788,-0.516562 -0.35686,-1.088476 -0.06078,-1.276953 0.295677,-0.188978 0.802075,0.07679 1.131809,0.593851 0.329187,0.516569 0.357207,1.087983 0.06018,1.276954"
         style="fill:#bdbcbc;fill-opacity:1;fill-rule:nonzero;stroke:none;stroke-width:0.0498616"
         id="path264-45"
         inkscape:connector-curvature="0" />
      <path
         d="m 83.33411,48.698613 c -0.164396,0.104209 -0.507788,-0.140109 -0.766622,-0.54698 -0.259082,-0.406376 -0.335618,-0.820726 -0.172023,-0.924934 0.163048,-0.104209 0.50565,0.140609 0.764879,0.546979 0.260225,0.406376 0.336566,0.820726 0.173766,0.924935"
         style="fill:#231f20;fill-opacity:1;fill-rule:nonzero;stroke:none;stroke-width:0.0498616"
         id="path266-6"
         inkscape:connector-curvature="0" />
      <path
         d="m 80.902562,44.672291 c 0,0 4.032553,0.544983 6.103354,5.231475 l 1.852113,0.981276 c 0,0 -2.61539,-6.648543 -7.955467,-6.212751"
         style="fill:#656263;fill-opacity:1;fill-rule:nonzero;stroke:none;stroke-width:0.0498616"
         id="path268-0"
         inkscape:connector-curvature="0" />
      <path
         d="m 78.856289,44.790463 c 0,0 3.557874,-1.613525 6.780178,0.814736 l 1.072623,-0.68061 c 0,0 -3.237462,-3.081945 -7.852801,-0.134126"
         style="fill:#bdbcbc;fill-opacity:1;fill-rule:nonzero;stroke:none;stroke-width:0.0498616"
         id="path270-6"
         inkscape:connector-curvature="0" />
      <path
         d="m 85.636467,45.605199 c 0,0 2.311386,2.014908 3.55344,4.873473 l 1.594421,-0.584376 c 0,0 -3.57722,-6.889876 -8.16912,-6.340899 0,0 3.096652,0.686594 3.021259,2.051802"
         style="fill:#bdbcbc;fill-opacity:1;fill-rule:nonzero;stroke:none;stroke-width:0.0498616"
         id="path272-2"
         inkscape:connector-curvature="0" />
      <path
         d="m 88.476635,49.304431 1.799305,-0.762882 -0.16419,-0.300165 -1.85226,0.817728 0.217145,0.245319"
         style="fill:#231f20;fill-opacity:1;fill-rule:nonzero;stroke:none;stroke-width:0.0498616"
         id="path274-5"
         inkscape:connector-curvature="0" />
      <path
         d="m 87.468881,47.942215 1.798957,-0.763383 -0.164195,-0.299671 -1.853056,0.817734 0.218294,0.24532"
         style="fill:#231f20;fill-opacity:1;fill-rule:nonzero;stroke:none;stroke-width:0.0498616"
         id="path276-0"
         inkscape:connector-curvature="0" />
      <path
         d="m 86.597502,46.743039 1.79811,-0.762882 -0.164343,-0.300165 -1.851913,0.817728 0.218146,0.245319"
         style="fill:#231f20;fill-opacity:1;fill-rule:nonzero;stroke:none;stroke-width:0.0498616"
         id="path278-6"
         inkscape:connector-curvature="0" />
      <path
         d="m 85.561528,45.789189 1.798509,-0.762883 -0.163995,-0.29967 -1.852861,0.817234 0.218347,0.245319"
         style="fill:#231f20;fill-opacity:1;fill-rule:nonzero;stroke:none;stroke-width:0.0498616"
         id="path280-04"
         inkscape:connector-curvature="0" />
      <path
         d="m 92.56414,52.628706 -3.160774,-1.634962 1.634908,-0.544989 1.525866,2.179951"
         style="fill:#bdbcbc;fill-opacity:1;fill-rule:nonzero;stroke:none;stroke-width:0.0498616"
         id="path282-0"
         inkscape:connector-curvature="0" />
      <path
         d="m 80.838488,72.985047 0.02903,-0.821968 2.557553,0.09215 -0.03021,0.821768 -0.33537,-0.01248 c 0,0 -0.03233,-0.311083 -0.355264,-0.322556 0,0 -0.195756,-0.04576 -0.325099,0.190674 l -0.03504,0.946972 c 0,0 0.008,0.284959 0.374563,0.375558 l -0.01054,0.297026 -1.295404,-0.04658 0.01089,-0.297426 c 0,0 0.350028,-0.03015 0.39849,-0.308492 l 0.03604,-0.998832 c 0,0 -0.06113,-0.191816 -0.298769,-0.200591 -0.236845,-0.0084 -0.372614,0.194013 -0.390116,0.296626 l -0.33073,-0.0119"
         style="fill:#ff8200;fill-opacity:1;fill-rule:nonzero;stroke:none;stroke-width:0.0498616"
         id="path284-4"
         inkscape:connector-curvature="0" />
      <path
         d="m 61.55626,75.080984 c 0,0 -0.76333,0.21814 -0.218141,0.817628 0.545384,0.599735 2.778832,2.834129 4.686191,1.144524 l 0.272692,-0.272097 c 0,0 2.45259,1.253118 4.958536,-2.071249 0,0 -3.378125,3.487815 -9.699278,0.381194"
         style="fill:#bdbcbc;fill-opacity:1;fill-rule:nonzero;stroke:none;stroke-width:0.0498616"
         id="path286-2"
         inkscape:connector-curvature="0" />
      <path
         d="m 75.288845,70.830479 c 0,0 2.652586,-0.780833 3.614964,-0.03604 0,0 -0.154273,-0.890477 -1.053725,-0.944428 0,0 -2.506894,0.708384 -2.561239,0.980476"
         style="fill:#231f20;fill-opacity:1;fill-rule:nonzero;stroke:none;stroke-width:0.0498616"
         id="path288-35"
         inkscape:connector-curvature="0" />
      <path
         d="m 83.572497,43.74536 c 0,0 1.145072,0.381942 0.817829,0.926931 l 0.762735,0.435786 c 0,0 0.599535,-1.035126 -1.580564,-1.362717"
         style="fill:#ffffff;fill-opacity:1;fill-rule:nonzero;stroke:none;stroke-width:0.0498616"
         id="path290-5"
         inkscape:connector-curvature="0" />
      <path
         d="m 90.984124,50.666648 -0.545337,0.163548 -0.05436,0.490138 0.871979,0.381942 -0.272297,-1.035628"
         style="fill:#ffffff;fill-opacity:1;fill-rule:nonzero;stroke:none;stroke-width:0.0498616"
         id="path292-0"
         inkscape:connector-curvature="0" />
      <path
         d="m 88.077744,43.146025 c 0,0 3.705563,2.67059 5.612969,10.027665 0,0 -0.599534,-5.50372 -2.179698,-8.828495 0,0 3.597415,4.740843 5.558966,11.662131 0,0 -1.144818,-7.629325 -4.032953,-11.552934 0,0 1.853008,1.253026 2.833784,2.452195 0,0 -2.289596,-5.068431 -7.793068,-3.760562"
         style="fill:#656263;fill-opacity:1;fill-rule:nonzero;stroke:none;stroke-width:0.0498616"
         id="path294-4"
         inkscape:connector-curvature="0" />
      <path
         d="m 98.477079,75.830851 c 0,0.353515 -0.298675,0.640423 -0.667648,0.640423 -0.367979,0 -0.667649,-0.286908 -0.667649,-0.640423 0,-0.354068 0.29967,-0.640023 0.667649,-0.640023 0.368973,0 0.667648,0.285955 0.667648,0.640023"
         style="fill:#231f20;fill-opacity:1;fill-rule:nonzero;stroke:none;stroke-width:0.0498616"
         id="path296-5"
         inkscape:connector-curvature="0" />
      <path
         d="m 98.477079,75.775952 c 0,0.323704 -0.262274,0.586025 -0.585377,0.586025 -0.324098,0 -0.585872,-0.262321 -0.585872,-0.586025 0,-0.323156 0.261774,-0.585124 0.585872,-0.585124 0.323103,0 0.585377,0.261968 0.585377,0.585124"
         style="fill:#bdbcbc;fill-opacity:1;fill-rule:nonzero;stroke:none;stroke-width:0.0498616"
         id="path298-5"
         inkscape:connector-curvature="0" />
      <path
         d="m 98.395803,75.680465 c 0,0.225973 -0.183989,0.409415 -0.408867,0.409415 -0.225873,0 -0.408367,-0.183442 -0.408367,-0.409415 0,-0.225519 0.182494,-0.408413 0.408367,-0.408413 0.224878,0 0.408867,0.182894 0.408867,0.408413"
         style="fill:#ffffff;fill-opacity:1;fill-rule:nonzero;stroke:none;stroke-width:0.0498616"
         id="path300-5"
         inkscape:connector-curvature="0" />
      <path
         d="m 97.487323,75.989211 0.363491,-0.181151 0.31762,0.381541 -0.163047,-0.45399 0.244323,-0.263516 -0.298674,0.1272 -0.25529,-0.272498 0.08177,0.353668 -0.290194,0.308746"
         style="fill:#231f20;fill-opacity:1;fill-rule:nonzero;stroke:none;stroke-width:0.0498616"
         id="path302-5"
         inkscape:connector-curvature="0" />
      <path
         d="m 89.921277,79.900598 c 0,0.353321 -0.29917,0.639428 -0.667696,0.639428 -0.368279,0 -0.667449,-0.286107 -0.667449,-0.639428 0,-0.355264 0.29917,-0.641365 0.667449,-0.641365 0.368526,0 0.667696,0.286101 0.667696,0.641365"
         style="fill:#231f20;fill-opacity:1;fill-rule:nonzero;stroke:none;stroke-width:0.0498616"
         id="path304-2"
         inkscape:connector-curvature="0" />
      <path
         d="m 89.921677,79.844904 c 0,0.323704 -0.261974,0.586072 -0.586272,0.586072 -0.323704,0 -0.585878,-0.262368 -0.585878,-0.586072 0,-0.323503 0.262174,-0.585471 0.585878,-0.585471 0.324298,0 0.586272,0.261968 0.586272,0.585471"
         style="fill:#bdbcbc;fill-opacity:1;fill-rule:nonzero;stroke:none;stroke-width:0.0498616"
         id="path306-1"
         inkscape:connector-curvature="0" />
      <path
         d="m 89.839105,79.74947 c 0,0.226121 -0.182346,0.408414 -0.408667,0.408414 -0.225125,0 -0.408219,-0.182293 -0.408219,-0.408414 0,-0.225572 0.183094,-0.408613 0.408219,-0.408613 0.226321,0 0.408667,0.183041 0.408667,0.408613"
         style="fill:#ffffff;fill-opacity:1;fill-rule:nonzero;stroke:none;stroke-width:0.0498616"
         id="path308-7"
         inkscape:connector-curvature="0" />
      <path
         d="m 88.931072,80.058763 0.363992,-0.181698 0.316919,0.381341 -0.162847,-0.454037 0.245419,-0.263717 -0.299917,0.127195 -0.253794,-0.272292 0.08122,0.353915 -0.290996,0.309293"
         style="fill:#231f20;fill-opacity:1;fill-rule:nonzero;stroke:none;stroke-width:0.0498616"
         id="path310-7"
         inkscape:connector-curvature="0" />
      <path
         d="m 79.676461,80.98878 c 0,0.353321 -0.299169,0.641419 -0.667442,0.641419 -0.368332,0 -0.667502,-0.288098 -0.667502,-0.641419 0,-0.35332 0.29917,-0.639428 0.667502,-0.639428 0.368273,0 0.667442,0.286108 0.667442,0.639428"
         style="fill:#231f20;fill-opacity:1;fill-rule:nonzero;stroke:none;stroke-width:0.0498616"
         id="path312-12"
         inkscape:connector-curvature="0" />
      <path
         d="m 79.676461,80.93463 c 0,0.32335 -0.261773,0.587073 -0.58702,0.587073 -0.323498,0 -0.585271,-0.263723 -0.585271,-0.587073 0,-0.323504 0.261773,-0.585278 0.585271,-0.585278 0.325247,0 0.58702,0.261774 0.58702,0.585278"
         style="fill:#bdbcbc;fill-opacity:1;fill-rule:nonzero;stroke:none;stroke-width:0.0498616"
         id="path314-0"
         inkscape:connector-curvature="0" />
      <path
         d="m 79.59429,80.839196 c 0,0.22632 -0.183289,0.409414 -0.409609,0.409414 -0.224378,0 -0.407472,-0.183094 -0.407472,-0.409414 0,-0.226321 0.183094,-0.407619 0.407472,-0.407619 0.22632,0 0.409609,0.181298 0.409609,0.407619"
         style="fill:#ffffff;fill-opacity:1;fill-rule:nonzero;stroke:none;stroke-width:0.0498616"
         id="path316-3"
         inkscape:connector-curvature="0" />
      <path
         d="m 78.685462,81.147741 0.364639,-0.181351 0.317868,0.381394 -0.16459,-0.452494 0.245018,-0.265466 -0.299169,0.128943 -0.254394,-0.272892 0.08242,0.353321 -0.29179,0.308545"
         style="fill:#231f20;fill-opacity:1;fill-rule:nonzero;stroke:none;stroke-width:0.0498616"
         id="path318-7"
         inkscape:connector-curvature="0" />
      <path
         d="m 71.065418,79.027824 c 0,0.353715 -0.298775,0.640023 -0.667301,0.640023 -0.368674,0 -0.667496,-0.286308 -0.667496,-0.640023 0,-0.353868 0.298822,-0.640571 0.667496,-0.640571 0.368526,0 0.667301,0.286703 0.667301,0.640571"
         style="fill:#231f20;fill-opacity:1;fill-rule:nonzero;stroke:none;stroke-width:0.0498616"
         id="path320-5"
         inkscape:connector-curvature="0" />
      <path
         d="m 71.065418,78.972925 c 0,0.323303 -0.261974,0.585872 -0.586078,0.585872 -0.322903,0 -0.585872,-0.262569 -0.585872,-0.585872 0,-0.32335 0.262969,-0.585672 0.585872,-0.585672 0.324104,0 0.586078,0.262322 0.586078,0.585672"
         style="fill:#bdbcbc;fill-opacity:1;fill-rule:nonzero;stroke:none;stroke-width:0.0498616"
         id="path322-81"
         inkscape:connector-curvature="0" />
      <path
         d="m 70.983989,78.877839 c 0,0.225378 -0.183436,0.409067 -0.40961,0.409067 -0.224924,0 -0.408219,-0.183689 -0.408219,-0.409067 0,-0.225526 0.183295,-0.409215 0.408219,-0.409215 0.226174,0 0.40961,0.183689 0.40961,0.409215"
         style="fill:#ffffff;fill-opacity:1;fill-rule:nonzero;stroke:none;stroke-width:0.0498616"
         id="path324-72"
         inkscape:connector-curvature="0" />
      <path
         d="m 70.075762,79.186784 0.36309,-0.182146 0.318068,0.381989 -0.164043,-0.454037 0.24562,-0.263917 -0.299718,0.127194 -0.254394,-0.272097 0.08182,0.354069 -0.290441,0.308945"
         style="fill:#231f20;fill-opacity:1;fill-rule:nonzero;stroke:none;stroke-width:0.0498616"
         id="path326-2"
         inkscape:connector-curvature="0" />
      <path
         d="m 57.550379,56.138961 c 0,0.354015 -0.298769,0.640717 -0.667296,0.640717 -0.368879,0 -0.667648,-0.286702 -0.667648,-0.640717 0,-0.353521 0.298769,-0.639723 0.667648,-0.639723 0.368527,0 0.667296,0.286202 0.667296,0.639723"
         style="fill:#231f20;fill-opacity:1;fill-rule:nonzero;stroke:none;stroke-width:0.0498616"
         id="path328-2"
         inkscape:connector-curvature="0" />
      <path
         d="m 57.550379,56.08511 c 0,0.323103 -0.262916,0.585372 -0.585872,0.585372 -0.324099,0 -0.586272,-0.262269 -0.586272,-0.585372 0,-0.324098 0.262173,-0.585872 0.586272,-0.585872 0.322956,0 0.585872,0.261774 0.585872,0.585872"
         style="fill:#bdbcbc;fill-opacity:1;fill-rule:nonzero;stroke:none;stroke-width:0.0498616"
         id="path330-76"
         inkscape:connector-curvature="0" />
      <path
         d="m 57.468808,55.989376 c 0,0.225372 -0.183094,0.408861 -0.409268,0.408861 -0.22612,0 -0.408413,-0.183489 -0.408413,-0.408861 0,-0.225873 0.182293,-0.408867 0.408413,-0.408867 0.226174,0 0.409268,0.182994 0.409268,0.408867"
         style="fill:#ffffff;fill-opacity:1;fill-rule:nonzero;stroke:none;stroke-width:0.0498616"
         id="path332-2"
         inkscape:connector-curvature="0" />
      <path
         d="m 56.55978,56.298015 0.363838,-0.181993 0.318469,0.381942 -0.164196,-0.453742 0.245566,-0.263764 -0.299717,0.127147 -0.254394,-0.272244 0.08162,0.354015 -0.29119,0.308639"
         style="fill:#231f20;fill-opacity:1;fill-rule:nonzero;stroke:none;stroke-width:0.0498616"
         id="path334-3"
         inkscape:connector-curvature="0" />
      <path
         d="m 61.810654,47.583211 c 0,0.353515 -0.298822,0.640223 -0.667496,0.640223 -0.368726,0 -0.668444,-0.286708 -0.668444,-0.640223 0,-0.353521 0.299718,-0.640223 0.668444,-0.640223 0.368674,0 0.667496,0.286702 0.667496,0.640223"
         style="fill:#231f20;fill-opacity:1;fill-rule:nonzero;stroke:none;stroke-width:0.0498616"
         id="path336-9"
         inkscape:connector-curvature="0" />
      <path
         d="m 61.810654,47.52886 c 0,0.323604 -0.262769,0.585872 -0.585872,0.585872 -0.324104,0 -0.586272,-0.262268 -0.586272,-0.585872 0,-0.323604 0.262168,-0.585872 0.586272,-0.585872 0.323103,0 0.585872,0.262268 0.585872,0.585872"
         style="fill:#bdbcbc;fill-opacity:1;fill-rule:nonzero;stroke:none;stroke-width:0.0498616"
         id="path338-0"
         inkscape:connector-curvature="0" />
      <path
         d="m 61.728235,47.433126 c 0,0.225873 -0.183442,0.408867 -0.40842,0.408867 -0.22612,0 -0.408466,-0.182994 -0.408466,-0.408867 0,-0.225373 0.182346,-0.408867 0.408466,-0.408867 0.224978,0 0.40842,0.183494 0.40842,0.408867"
         style="fill:#ffffff;fill-opacity:1;fill-rule:nonzero;stroke:none;stroke-width:0.0498616"
         id="path340-9"
         inkscape:connector-curvature="0" />
      <path
         d="m 60.820002,47.742266 0.362896,-0.181993 0.318268,0.381942 -0.163047,-0.454738 0.244618,-0.262775 -0.299917,0.126653 -0.253199,-0.272245 0.08138,0.354016 -0.290995,0.30914"
         style="fill:#231f20;fill-opacity:1;fill-rule:nonzero;stroke:none;stroke-width:0.0498616"
         id="path342-3"
         inkscape:connector-curvature="0" />
      <path
         d="m 71.546681,40.92519 c 0,0.354017 -0.298769,0.640722 -0.667449,0.640722 -0.368726,0 -0.667496,-0.286705 -0.667496,-0.640722 0,-0.35302 0.29877,-0.640223 0.667496,-0.640223 0.36868,0 0.667449,0.287203 0.667449,0.640223"
         style="fill:#231f20;fill-opacity:1;fill-rule:nonzero;stroke:none;stroke-width:0.0498616"
         id="path344-6"
         inkscape:connector-curvature="0" />
      <path
         d="m 71.546681,40.870841 c 0,0.323602 -0.261974,0.585874 -0.586072,0.585874 -0.322909,0 -0.586025,-0.262272 -0.586025,-0.585874 0,-0.323104 0.263116,-0.585874 0.586025,-0.585874 0.324098,0 0.586072,0.26277 0.586072,0.585874"
         style="fill:#bdbcbc;fill-opacity:1;fill-rule:nonzero;stroke:none;stroke-width:0.0498616"
         id="path346-3"
         inkscape:connector-curvature="0" />
      <path
         d="m 71.465304,40.775605 c 0,0.225873 -0.183489,0.408866 -0.409609,0.408866 -0.224978,0 -0.408272,-0.182993 -0.408272,-0.408866 0,-0.225873 0.183294,-0.408366 0.408272,-0.408366 0.22612,0 0.409609,0.182493 0.409609,0.408366"
         style="fill:#ffffff;fill-opacity:1;fill-rule:nonzero;stroke:none;stroke-width:0.0498616"
         id="path348-7"
         inkscape:connector-curvature="0" />
      <path
         d="m 70.556276,41.084249 0.363644,-0.181497 0.318068,0.381442 -0.163595,-0.453741 0.245413,-0.263768 -0.299964,0.127147 -0.254194,-0.272244 0.08242,0.354017 -0.291791,0.308644"
         style="fill:#231f20;fill-opacity:1;fill-rule:nonzero;stroke:none;stroke-width:0.0498616"
         id="path350-1"
         inkscape:connector-curvature="0" />
      <path
         d="m 81.638018,39.026959 c 0,0.353519 -0.298969,0.640223 -0.667495,0.640223 -0.36888,0 -0.667649,-0.286704 -0.667649,-0.640223 0,-0.353518 0.298769,-0.640223 0.667649,-0.640223 0.368526,0 0.667495,0.286705 0.667495,0.640223"
         style="fill:#231f20;fill-opacity:1;fill-rule:nonzero;stroke:none;stroke-width:0.0498616"
         id="path352-3"
         inkscape:connector-curvature="0" />
      <path
         d="m 81.638018,38.97261 c 0,0.323602 -0.261973,0.585874 -0.586072,0.585874 -0.323103,0 -0.585076,-0.262272 -0.585076,-0.585874 0,-0.323602 0.261973,-0.585874 0.585076,-0.585874 0.324099,0 0.586072,0.262272 0.586072,0.585874"
         style="fill:#bdbcbc;fill-opacity:1;fill-rule:nonzero;stroke:none;stroke-width:0.0498616"
         id="path354-1"
         inkscape:connector-curvature="0" />
      <path
         d="m 81.556194,38.877374 c 0,0.225375 -0.182894,0.408865 -0.409214,0.408865 -0.224925,0 -0.408414,-0.18349 -0.408414,-0.408865 0,-0.225873 0.183489,-0.408865 0.408414,-0.408865 0.22632,0 0.409214,0.182992 0.409214,0.408865"
         style="fill:#ffffff;fill-opacity:1;fill-rule:nonzero;stroke:none;stroke-width:0.0498616"
         id="path356-1"
         inkscape:connector-curvature="0" />
      <path
         d="m 80.648368,39.186516 0.36309,-0.181995 0.318068,0.381441 -0.164196,-0.45374 0.245567,-0.264267 -0.299717,0.127646 -0.254194,-0.272743 0.08142,0.354516 -0.290041,0.309142"
         style="fill:#231f20;fill-opacity:1;fill-rule:nonzero;stroke:none;stroke-width:0.0498616"
         id="path358-9"
         inkscape:connector-curvature="0" />
      <path
         d="m 92.169536,41.629236 c -0.323904,0 -0.585872,-0.262272 -0.585872,-0.585874 0,-0.309641 0.241727,-0.560444 0.545932,-0.581885 l -0.0424,-0.0035 c -0.368727,0 -0.667696,0.286205 -0.667696,0.640222 0,0.353021 0.298969,0.640223 0.667696,0.640223 0.368673,0 0.668243,-0.287202 0.668243,-0.640223 l -0.0029,-0.02692 c -0.01555,0.31014 -0.269553,0.557951 -0.583134,0.557951"
         style="fill:#231f20;fill-opacity:1;fill-rule:nonzero;stroke:none;stroke-width:0.0498616"
         id="path360-0"
         inkscape:connector-curvature="0" />
      <path
         d="m 92.752669,41.071284 0.0029,-0.02792 c 0,-0.323602 -0.262769,-0.585376 -0.585872,-0.585376 l -0.03993,0.0035 c 0.338709,0.02044 0.608662,0.282715 0.623073,0.609807"
         style="fill:#bdbcbc;fill-opacity:1;fill-rule:nonzero;stroke:none;stroke-width:0.0498616"
         id="path362-8"
         inkscape:connector-curvature="0" />
      <path
         d="m 91.856356,40.948625 c 0,-0.118172 0.05041,-0.224377 0.130887,-0.298671 l -0.0129,-0.05585 0.03504,0.0374 c 0.06971,-0.05684 0.157965,-0.09174 0.255342,-0.09174 0.225726,0 0.40862,0.182494 0.40862,0.408865 0,0.177009 -0.113737,0.326594 -0.272097,0.383436 l 0.04499,0.124654 -0.09135,-0.110194 c -0.02921,0.0065 -0.05923,0.01047 -0.0902,0.01047 -0.14081,0 -0.26586,-0.0718 -0.338709,-0.180498 l -0.160851,0.08077 0.130086,-0.138116 c -0.02456,-0.05235 -0.03893,-0.109197 -0.03893,-0.170527 z m -0.272692,0.09474 c 0,0.323602 0.261968,0.585874 0.585872,0.585874 0.31358,0 0.567574,-0.247812 0.583133,-0.557952 -0.01443,-0.327092 -0.284364,-0.589364 -0.623073,-0.609807 -0.304205,0.02144 -0.545932,0.272244 -0.545932,0.581885"
         style="fill:#bdbcbc;fill-opacity:1;fill-rule:nonzero;stroke:none;stroke-width:0.0498616"
         id="path364-2"
         inkscape:connector-curvature="0" />
      <path
         d="m 91.92606,41.176492 c 0.07285,0.108699 0.1979,0.180499 0.33871,0.180499 0.03098,0 0.06098,-0.004 0.0902,-0.01047 l -0.225973,-0.270748 -0.202935,0.10072"
         style="fill:#ffffff;fill-opacity:1;fill-rule:nonzero;stroke:none;stroke-width:0.0498616"
         id="path366-8"
         inkscape:connector-curvature="0" />
      <path
         d="m 92.528487,40.739206 -0.245219,0.263269 0.118024,0.329586 c 0.15836,-0.05684 0.272097,-0.206427 0.272097,-0.383436 0,-0.226372 -0.182893,-0.408865 -0.408619,-0.408865 -0.09738,0 -0.185633,0.03491 -0.255343,0.09175 l 0.218347,0.234848 0.300713,-0.127147"
         style="fill:#ffffff;fill-opacity:1;fill-rule:nonzero;stroke:none;stroke-width:0.0498616"
         id="path368-7"
         inkscape:connector-curvature="0" />
      <path
         d="m 91.987243,40.649954 c -0.08048,0.07429 -0.130887,0.180499 -0.130887,0.298671 0,0.06133 0.01443,0.118172 0.03893,0.170526 l 0.160857,-0.170526 -0.06891,-0.298671"
         style="fill:#ffffff;fill-opacity:1;fill-rule:nonzero;stroke:none;stroke-width:0.0498616"
         id="path370-3"
         inkscape:connector-curvature="0" />
      <path
         d="m 91.92606,41.176492 c -0.01266,-0.01795 -0.02238,-0.0374 -0.03074,-0.05734 l -0.130086,0.138116 0.160851,-0.08077"
         style="fill:#231f20;fill-opacity:1;fill-rule:nonzero;stroke:none;stroke-width:0.0498616"
         id="path372-73"
         inkscape:connector-curvature="0" />
      <path
         d="m 91.974375,40.594109 0.0129,0.05585 0.0222,-0.01845 -0.03504,-0.0374"
         style="fill:#231f20;fill-opacity:1;fill-rule:nonzero;stroke:none;stroke-width:0.0498616"
         id="path374-2"
         inkscape:connector-curvature="0" />
      <path
         d="m 92.446315,41.456715 -0.04499,-0.124654 -0.04635,0.01446 0.09135,0.110194"
         style="fill:#231f20;fill-opacity:1;fill-rule:nonzero;stroke:none;stroke-width:0.0498616"
         id="path376-6"
         inkscape:connector-curvature="0" />
      <path
         d="m 92.128995,41.075772 0.225973,0.270748 0.04635,-0.01446 -0.118025,-0.329585 0.245219,-0.263269 -0.300712,0.127147 -0.218347,-0.234848 -0.0222,0.01845 0.06891,0.29867 -0.160857,0.170527 c 0.0084,0.01995 0.01808,0.03939 0.03074,0.05734 l 0.202934,-0.100721"
         style="fill:#231f20;fill-opacity:1;fill-rule:nonzero;stroke:none;stroke-width:0.0498616"
         id="path378-48"
         inkscape:connector-curvature="0" />
      <path
         d="m 101.25686,46.656781 c 0,0.35352 -0.29917,0.640222 -0.66814,0.640222 -0.36848,0 -0.667152,-0.286702 -0.667152,-0.640222 0,-0.353521 0.298672,-0.640223 0.667152,-0.640223 0.36897,0 0.66814,0.286702 0.66814,0.640223"
         style="fill:#231f20;fill-opacity:1;fill-rule:nonzero;stroke:none;stroke-width:0.0498616"
         id="path380-89"
         inkscape:connector-curvature="0" />
      <path
         d="m 101.25686,46.601935 c 0,0.324098 -0.26227,0.585872 -0.58587,0.585872 -0.32361,0 -0.58638,-0.261774 -0.58638,-0.585872 0,-0.323604 0.26277,-0.585377 0.58638,-0.585377 0.3236,0 0.58587,0.261773 0.58587,0.585377"
         style="fill:#bdbcbc;fill-opacity:1;fill-rule:nonzero;stroke:none;stroke-width:0.0498616"
         id="path382-11"
         inkscape:connector-curvature="0" />
      <path
         d="m 101.17509,46.507196 c 0,0.225372 -0.18349,0.408366 -0.40837,0.408366 -0.22587,0 -0.40936,-0.182994 -0.40936,-0.408366 0,-0.226374 0.18349,-0.408867 0.40936,-0.408867 0.22488,0 0.40837,0.182493 0.40837,0.408867"
         style="fill:#ffffff;fill-opacity:1;fill-rule:nonzero;stroke:none;stroke-width:0.0498616"
         id="path384-6"
         inkscape:connector-curvature="0" />
      <path
         d="m 100.26661,46.815841 0.36299,-0.181999 0.31862,0.381441 -0.16405,-0.453736 0.24532,-0.263269 -0.29966,0.126646 -0.2543,-0.272244 0.0813,0.354516 -0.29019,0.308645"
         style="fill:#231f20;fill-opacity:1;fill-rule:nonzero;stroke:none;stroke-width:0.0498616"
         id="path386-8"
         inkscape:connector-curvature="0" />
      <path
         d="m 106.27094,55.376078 c 0,0.354016 -0.29917,0.640223 -0.66764,0.640223 -0.36898,0 -0.66865,-0.286207 -0.66865,-0.640223 0,-0.35352 0.29967,-0.640223 0.66865,-0.640223 0.36847,0 0.66764,0.286703 0.66764,0.640223"
         style="fill:#231f20;fill-opacity:1;fill-rule:nonzero;stroke:none;stroke-width:0.0498616"
         id="path388-7"
         inkscape:connector-curvature="0" />
      <path
         d="m 106.27094,55.321727 c 0,0.323604 -0.26327,0.585878 -0.58637,0.585878 -0.3231,0 -0.58587,-0.262274 -0.58587,-0.585878 0,-0.323598 0.26277,-0.585872 0.58587,-0.585872 0.3231,0 0.58637,0.262274 0.58637,0.585872"
         style="fill:#bdbcbc;fill-opacity:1;fill-rule:nonzero;stroke:none;stroke-width:0.0498616"
         id="path390-3"
         inkscape:connector-curvature="0" />
      <path
         d="m 106.18917,55.226494 c 0,0.225372 -0.18299,0.408867 -0.40936,0.408867 -0.22588,0 -0.40887,-0.183495 -0.40887,-0.408867 0,-0.225874 0.18299,-0.409362 0.40887,-0.409362 0.22637,0 0.40936,0.183488 0.40936,0.409362"
         style="fill:#ffffff;fill-opacity:1;fill-rule:nonzero;stroke:none;stroke-width:0.0498616"
         id="path392-7"
         inkscape:connector-curvature="0" />
      <path
         d="m 105.28019,55.535139 0.36399,-0.181498 0.31712,0.381441 -0.16354,-0.453743 0.24581,-0.263764 -0.29967,0.127147 -0.25429,-0.272244 0.0813,0.354016 -0.2907,0.308645"
         style="fill:#231f20;fill-opacity:1;fill-rule:nonzero;stroke:none;stroke-width:0.0498616"
         id="path394-4"
         inkscape:connector-curvature="0" />
      <path
         d="m 105.83416,66.384518 c 0,0.354021 -0.29768,0.639728 -0.66765,0.639728 -0.36898,0 -0.66765,-0.285707 -0.66765,-0.639728 0,-0.354015 0.29867,-0.640717 0.66765,-0.640717 0.36997,0 0.66765,0.286702 0.66765,0.640717"
         style="fill:#231f20;fill-opacity:1;fill-rule:nonzero;stroke:none;stroke-width:0.0498616"
         id="path396-1"
         inkscape:connector-curvature="0" />
      <path
         d="m 105.83416,66.329672 c 0,0.324099 -0.26178,0.585872 -0.58488,0.585872 -0.3246,0 -0.58587,-0.261773 -0.58587,-0.585872 0,-0.323103 0.26127,-0.585871 0.58587,-0.585871 0.3231,0 0.58488,0.262768 0.58488,0.585871"
         style="fill:#bdbcbc;fill-opacity:1;fill-rule:nonzero;stroke:none;stroke-width:0.0498616"
         id="path398-0"
         inkscape:connector-curvature="0" />
      <path
         d="m 105.75288,66.234439 c 0,0.225873 -0.18349,0.408861 -0.40886,0.408861 -0.22587,0 -0.40937,-0.182988 -0.40937,-0.408861 0,-0.225873 0.1835,-0.408867 0.40937,-0.408867 0.22537,0 0.40886,0.182994 0.40886,0.408867"
         style="fill:#ffffff;fill-opacity:1;fill-rule:nonzero;stroke:none;stroke-width:0.0498616"
         id="path400-6"
         inkscape:connector-curvature="0" />
      <path
         d="m 104.84441,66.543579 0.36299,-0.181499 0.31811,0.381442 -0.16305,-0.454238 0.24483,-0.263269 -0.29917,0.126647 -0.2548,-0.272245 0.0823,0.354022 -0.29119,0.30914"
         style="fill:#231f20;fill-opacity:1;fill-rule:nonzero;stroke:none;stroke-width:0.0498616"
         id="path402-4"
         inkscape:connector-curvature="0" />
      <path
         d="m 81.900787,53.337238 0.636283,4.087151 c 0,0 1.779665,1.289921 3.015683,2.996684 l 0.254141,-0.689085 c 0,0 -2.852429,-5.831316 -3.906107,-6.39475"
         style="fill:#231f20;fill-opacity:1;fill-rule:nonzero;stroke:none;stroke-width:0.0498616"
         id="path404-1"
         inkscape:connector-curvature="0" />
      <path
         d="m 83.88179,61.657144 c 0,0 -0.382336,-1.090473 -1.144671,-1.416568 0,0 0.88993,0.162547 1.399066,1.435013 l -0.254395,-0.01843"
         style="fill:#231f20;fill-opacity:1;fill-rule:nonzero;stroke:none;stroke-width:0.0498616"
         id="path406-3"
         inkscape:connector-curvature="0" />
      <path
         d="m 54.903429,83.85956 c -0.07165,-0.008 -0.141011,-0.0162 -0.207623,-0.02438 v -0.289394 c 0.06681,-0.0068 0.135969,-0.01366 0.207623,-0.02067 v 0.334422"
         style="fill:#adacac;fill-opacity:1;fill-rule:nonzero;stroke:none;stroke-width:0.0498616"
         id="path410-9"
         inkscape:connector-curvature="0" />
      <path
         d="m 70.650167,82.81905 c -0.122707,-0.0444 -0.243275,-0.089 -0.364834,-0.134973 -0.238393,-0.08995 -0.474637,-0.182694 -0.709532,-0.277934 -0.166934,-0.06776 -0.333427,-0.137117 -0.498418,-0.207622 -0.208971,-0.089 -0.417188,-0.180744 -0.623268,-0.274041 1.548998,-0.220084 3.057714,-0.453436 4.43165,-0.694568 0.786863,0.246615 1.591482,0.461817 2.411254,0.64431 -1.399213,0.174119 -2.718056,0.417589 -3.903816,0.746976 -0.24791,0.06891 -0.496268,0.13478 -0.743036,0.197852 m 23.63405,-0.572609 c -1.475453,-0.164396 -3.252173,-0.337367 -5.187005,-0.474832 0.946176,-0.225973 1.870557,-0.495726 2.770811,-0.806562 1.37234,0.216745 2.620625,0.462765 3.666223,0.720451 -0.410858,0.195556 -0.827204,0.382336 -1.250029,0.560943"
         style="fill:#120f0d;fill-opacity:1;fill-rule:nonzero;stroke:none;stroke-width:0.0498616"
         id="path426-2"
         inkscape:connector-curvature="0" />
      <path
         d="m 75.297019,81.874222 c -0.819772,-0.182493 -1.624391,-0.397695 -2.411254,-0.64431 0.182293,-0.03192 0.361294,-0.06387 0.538552,-0.09599 0.944028,0.253946 1.911494,0.464113 2.898406,0.626566 -0.346142,0.0341 -0.688143,0.07185 -1.025704,0.113731 m 13.800193,-0.102613 c -0.692825,-0.04929 -1.405297,-0.09389 -2.132379,-0.132088 1.196879,-0.22572 2.361791,-0.520802 3.491109,-0.880954 0.482611,0.06507 0.954004,0.134032 1.412081,0.20648 -0.900254,0.310836 -1.824635,0.580589 -2.770811,0.806562"
         style="fill:#adacac;fill-opacity:1;fill-rule:nonzero;stroke:none;stroke-width:0.0498616"
         id="path428-7"
         inkscape:connector-curvature="0" />
      <path
         d="m 76.322723,81.760491 c -0.986912,-0.162453 -1.954378,-0.37262 -2.898406,-0.626566 0.741093,-0.134974 1.438158,-0.272091 2.073546,-0.410611 l 0.124803,0.899258 c 0.250107,0.04735 0.501156,0.09135 0.753807,0.132483 -0.01814,0.0018 -0.03563,0.0035 -0.05377,0.0053 m 10.64211,-0.120969 c -0.01849,-5.89e-4 -0.03663,-0.0018 -0.05489,-0.0029 1.205206,-0.224925 2.379895,-0.520808 3.516986,-0.882102 0.0097,0.0012 0.01926,0.0024 0.02903,0.0041 -1.129318,0.360152 -2.29423,0.655234 -3.491109,0.880954"
         style="fill:#5f5c5d;fill-opacity:1;fill-rule:nonzero;stroke:none;stroke-width:0.0498616"
         id="path430-1"
         inkscape:connector-curvature="0" />
      <path
         d="m 76.376473,81.755055 c -0.252651,-0.04117 -0.5037,-0.08512 -0.753807,-0.132483 l -0.124803,-0.899258 c 0.02314,-0.0053 0.04576,-0.0099 0.06871,-0.01502 1.782002,-0.391064 3.988378,-0.554312 6.324645,-0.554312 2.8273,0 5.846269,0.238788 8.535703,0.600683 -1.137092,0.361295 -2.31178,0.657178 -3.516986,0.882103 -1.564056,-0.08118 -3.19254,-0.131835 -4.819869,-0.131835 -0.928822,0 -1.857349,0.01637 -2.774303,0.05312 0.214259,-0.107101 0.360699,-0.322155 0.360699,-0.569318 0,-0.009 -3.94e-4,-0.01773 -5.47e-4,-0.0265 3.47e-4,-0.0091 5.47e-4,-0.01832 5.47e-4,-0.02768 0,-0.323504 -0.261773,-0.585277 -0.58702,-0.585277 -0.01284,0 -0.02574,5.89e-4 -0.03857,0.0012 -0.01384,-5.89e-4 -0.02762,-0.0012 -0.04181,-0.0012 -0.368326,0 -0.667496,0.286107 -0.667496,0.639428 0,0.268204 0.17237,0.498812 0.416794,0.594252 -0.808305,0.04016 -1.604697,0.09663 -2.381837,0.172022"
         style="fill:#5f5c5d;fill-opacity:1;fill-rule:nonzero;stroke:none;stroke-width:0.0498616"
         id="path432-03"
         inkscape:connector-curvature="0" />
      <path
         d="m 78.758311,81.583032 c -0.244418,-0.09544 -0.416794,-0.326047 -0.416794,-0.594252 0,-0.35332 0.29917,-0.639428 0.667502,-0.639428 0.01419,0 0.02803,5.89e-4 0.04181,0.0012 -0.305407,0.01985 -0.546686,0.27324 -0.546686,0.583876 0,0.32335 0.261774,0.587073 0.585277,0.587073 0.315925,0 0.571862,-0.248711 0.586473,-0.5594 1.47e-4,0.0088 5.48e-4,0.01755 5.48e-4,0.0265 0,0.247163 -0.146446,0.462217 -0.3607,0.569318 -0.186581,0.0074 -0.372019,0.01578 -0.557451,0.02491"
         style="fill:#231f20;fill-opacity:1;fill-rule:nonzero;stroke:none;stroke-width:0.0498616"
         id="path434-5"
         inkscape:connector-curvature="0" />
      <path
         d="m 79.089441,81.521703 c -0.323498,0 -0.585271,-0.263723 -0.585271,-0.587073 0,-0.310636 0.241279,-0.564035 0.546679,-0.583876 0.01284,-5.89e-4 0.02574,-0.0012 0.03857,-0.0012 0.325247,0 0.587021,0.261774 0.587021,0.585277 0,0.0094 -2.01e-4,0.01855 -5.48e-4,0.02768 -0.0146,0.310689 -0.270548,0.5594 -0.586473,0.5594 m 0.278528,-0.173918 v 0 l -0.04482,-0.123108 c 0.158159,-0.05671 0.271149,-0.207822 0.271149,-0.385481 0,-0.22632 -0.183295,-0.407618 -0.409615,-0.407618 -0.09678,0 -0.185833,0.03386 -0.256138,0.09035 l -0.03369,-0.03604 0.01266,0.05436 c -0.08003,0.07439 -0.130292,0.18055 -0.130292,0.298969 0,0.06138 0.01349,0.11942 0.03757,0.171822 l -0.129338,0.136723 0.161104,-0.08023 c 0.0732,0.109244 0.197699,0.181098 0.338109,0.181098 0.03174,0 0.06233,-0.0035 0.09195,-0.01031 l 0.09134,0.109497"
         style="fill:#adacac;fill-opacity:1;fill-rule:nonzero;stroke:none;stroke-width:0.0498616"
         id="path436-3"
         inkscape:connector-curvature="0" />
      <path
         d="m 79.184681,81.24861 c -0.140416,0 -0.264919,-0.07185 -0.338115,-0.181097 l 0.203535,-0.101123 0.226521,0.271897 c -0.02962,0.0067 -0.06018,0.01031 -0.09194,0.01031 m 0.138466,-0.02391 -0.119768,-0.329387 0.245018,-0.265466 -0.299169,0.128943 -0.220691,-0.236839 c 0.0703,-0.05648 0.159361,-0.09035 0.256144,-0.09035 0.22632,0 0.409609,0.181298 0.409609,0.407618 0,0.177659 -0.112984,0.328787 -0.271143,0.385482 m -0.508341,-0.213659 c -0.02415,-0.05241 -0.03757,-0.110446 -0.03757,-0.171823 0,-0.118419 0.05023,-0.224577 0.130286,-0.298969 l 0.06976,0.298969 -0.162447,0.171823"
         style="fill:#e9e8e8;fill-opacity:1;fill-rule:nonzero;stroke:none;stroke-width:0.0498616"
         id="path438-5"
         inkscape:connector-curvature="0" />
      <path
         d="m 79.367969,81.347784 -0.09135,-0.109497 -0.226521,-0.271897 -0.203535,0.101123 -0.161104,0.08023 0.129344,-0.136723 0.162446,-0.171822 -0.06976,-0.29897 -0.01266,-0.05436 0.03369,0.03604 0.22069,0.236839 0.29917,-0.128944 -0.245019,0.265466 0.119768,0.329387 0.04482,0.123107"
         style="fill:#231f20;fill-opacity:1;fill-rule:nonzero;stroke:none;stroke-width:0.0498616"
         id="path440-4"
         inkscape:connector-curvature="0" />
    </g>
    <g
       transform="matrix(0.11103379,0,0,-0.11103379,98.875279,221.07591)"
       id="g10-8-2-0-98-1-2"
       style="fill:#000000">
      <g
         transform="scale(0.1)"
         id="g12-4-4-2-0-2-4"
         style="fill:#000000">
        <path
           inkscape:connector-curvature="0"
           id="path14-7-7-9-0-4-4"
           style="fill:#000000;fill-opacity:1;fill-rule:nonzero;stroke:none"
           d="M 608.402,332.551 C 600.703,322.285 552.195,257.27 495.172,200.508 l -0.031,-0.031 C 438.379,143.453 380.656,100.328 370.391,92.6328 l -0.184,-0.1094 c -10.648,-8.8242 -28.328,-8.4492 -39.187,0 -10.266,7.6996 -70.684,53.5156 -127.446,110.5356 l -0.035,0.035 C 146.52,259.855 100.703,320.27 93.0039,330.535 l 0.0195,0.02 c -8.8242,10.648 -8.4492,28.328 0,39.191 7.6996,10.266 53.5156,70.684 110.5356,127.445 l 0.035,0.032 c 56.758,57.019 117.176,102.836 127.441,110.535 10.863,8.449 28.543,8.824 39.192,0 l 0.003,0.004 0.016,0.019 c 10.266,-7.699 70.684,-53.515 127.445,-110.539 l 0.036,-0.031 C 554.746,440.449 600.684,378.25 608.383,367.984 l 0.019,-0.054 c 8.825,-10.649 8.45,-24.52 0,-35.379 z m 79.817,40.851 c -25.766,23.614 -105.567,75.586 -172.395,142.411 -66.297,66.3 -119.164,146.64 -142.422,172.406 -17.609,17.609 -27.769,17.609 -45.379,0 C 304.742,662.453 251.898,582.113 185.598,515.813 118.773,448.988 38.9727,394.906 13.207,373.402 -4.40234,355.793 -4.40234,345.633 13.207,328.023 38.9727,305.07 119.313,251.898 185.609,185.598 252.438,118.773 304.766,38.9727 328.023,13.207 c 17.61,-17.60934 27.77,-17.60934 45.379,0 22.953,25.7657 75.586,105.566 142.414,172.391 66.297,66.3 147.161,121.226 172.403,142.425 17.609,17.61 17.609,27.77 0,45.379" />
        <path
           inkscape:connector-curvature="0"
           id="path16-6-0-0-8-3-4"
           style="fill:#000000;fill-opacity:1;fill-rule:nonzero;stroke:none"
           d="m 343.957,295.504 c -80.492,0 -145.586,25.906 -145.746,57.863 -0.109,21.93 30.551,41 75.98,50.817 l 34.582,-22.258 c -35.398,-6.356 -59.636,-19.317 -59.636,-34.27 0,-21.23 48.871,-38.437 109.152,-38.437 51.785,0 109.914,17.207 109.914,38.437 -0.265,13.371 -15.746,21.121 -30.785,28.61 l -20.613,-4.711 -10.875,30.004 66.945,-16.36 -15.105,-3.84 c 0,0 25.543,-13.226 30.984,-27.992 10.633,-32.183 -59.172,-57.863 -144.797,-57.863 z m -16.324,-115.738 4.726,109.347 c 7.454,-1.242 30.02,-1.078 37.493,0.082 l 4.961,-109.429 c -12.395,-3.321 -35.329,-2.743 -47.18,0 z m 22.512,356.089 38.714,-111.722 -25.82,0.008 4.816,-106.371 c -12.875,-2.227 -22.289,-1.778 -34.937,0.191 l 4.594,106.18 H 311.129 Z M 589.836,366.652 c -7.145,9.528 -49.777,67.246 -102.695,119.922 l -0.028,0.031 C 434.438,539.523 378.367,582.043 368.84,589.188 l -0.016,-0.02 -0.195,0.191 c -9.883,8.188 -26.098,7.645 -36.176,-0.195 C 322.926,582.02 266.855,539.5 214.184,486.586 l -0.032,-0.031 C 161.234,433.879 118.719,377.813 111.57,368.285 c -7.84,-10.078 -8.183,-26.488 0,-36.367 l -0.015,-0.02 c 7.144,-9.527 49.664,-65.593 102.582,-118.269 l 0.027,-0.031 C 266.84,160.684 322.91,118.164 332.438,111.02 c 10.078,-7.84 26.484,-8.188 36.367,0 l 0.168,0.097 c 9.527,7.145 63.097,47.164 115.769,100.082 l 0.031,0.031 c 52.918,52.672 97.938,113.008 105.082,122.536 7.836,10.082 8.188,22.953 0,32.836 l -0.019,0.05" />
        <path
           inkscape:connector-curvature="0"
           id="path18-6-4-9-5-4-3"
           style="fill:#000000;fill-opacity:1;fill-rule:evenodd;stroke:none"
           d="m 471.492,55.5859 h -5.039 v 6.3829 h 3.985 c 2.156,0 5.082,-0.2149 5.082,-2.961 0,-2.8984 -1.493,-3.4219 -4.028,-3.4219 z m 10.031,2.8594 c 0,6.0547 -4,7.961 -10.843,7.961 h -9.879 V 39.9688 h 5.652 v 11.1171 h 2.688 l 6.082,-11.1171 h 6.742 l -6.824,11.6054 c 3.574,0.2891 6.382,2.0235 6.382,6.8711 z M 470.539,34.2852 v 0.0781 c -9.738,-0.0781 -17.59,7.4961 -17.59,18.8476 0,11.2891 7.852,18.8047 17.59,18.8047 9.504,0 17.602,-7.5156 17.602,-18.8047 0,-11.3515 -8.098,-18.9257 -17.602,-18.9257 z m 0,43.4531 c -13.055,0 -24.66,-9.0313 -24.66,-24.5274 0,-15.5351 11.605,-24.6093 24.66,-24.6093 12.965,0 24.59,9.0742 24.59,24.6093 0,15.4961 -11.625,24.5274 -24.59,24.5274" />
        <path
           inkscape:connector-curvature="0"
           id="path20-6-3-7-1-2-7"
           style="fill:#000000;fill-opacity:1;fill-rule:nonzero;stroke:none"
           d="M 799.766,78.6016 V 608.832 H 946.641 V 78.6016 H 799.766 v 0" />
        <path
           inkscape:connector-curvature="0"
           id="path22-4-0-0-4-0-8"
           style="fill:#000000;fill-opacity:1;fill-rule:nonzero;stroke:none"
           d="M 1023.72,78.6016 V 608.832 h 403.9 V 506.031 H 1170.59 V 396.617 h 236.45 V 293.797 H 1170.59 V 181.453 h 257.03 V 78.6016 h -403.9 v 0" />
        <path
           inkscape:connector-curvature="0"
           id="path24-2-0-3-73-4-5"
           style="fill:#000000;fill-opacity:1;fill-rule:nonzero;stroke:none"
           d="M 1509.91,78.6016 V 608.832 h 403.8 V 506.031 H 1656.75 V 396.617 h 236.36 V 293.797 H 1656.75 V 181.453 h 256.96 V 78.6016 h -403.8 v 0" />
        <path
           inkscape:connector-curvature="0"
           id="path26-4-5-1-0-29-4-0"
           style="fill:#000000;fill-opacity:1;fill-rule:nonzero;stroke:none"
           d="M 1995.95,78.6016 V 608.832 h 403.9 V 506.031 H 2142.91 V 396.617 H 2379.3 V 293.797 H 2142.91 V 181.453 h 256.94 V 78.6016 h -403.9 v 0" />
      </g>
    </g>
    <g
       id="g4720">
      <g
         aria-label="VOL   S"
         transform="matrix(0.21112672,0,0,0.21112672,49.114262,183.31176)"
         style="font-style:normal;font-weight:normal;font-size:40px;line-height:1.25;font-family:sans-serif;letter-spacing:0px;word-spacing:0px;fill:#000000;fill-opacity:1;stroke:none"
         id="flowRoot4078-7-5-3-5-7-4">
        <path
           d="m 539.14359,146.43399 h 6.8 l 7.32,19.72 7.32,-19.72 h 6.64 l -11.32,28.2 h -5.44 z"
           style="font-style:normal;font-variant:normal;font-weight:normal;font-stretch:normal;font-family:'Gotham Bold';-inkscape-font-specification:'Gotham Bold, ';letter-spacing:-2.10714173px;fill:#000000"
           id="path4707"
           inkscape:connector-curvature="0" />
        <path
           d="m 583.11645,169.23399 q 1.84,0 3.4,-0.68 1.56,-0.68 2.64,-1.88 1.12,-1.2 1.72,-2.76 0.64,-1.6 0.64,-3.4 v -0.08 q 0,-1.8 -0.64,-3.4 -0.6,-1.6 -1.76,-2.8 -1.12,-1.2 -2.68,-1.88 -1.56,-0.72 -3.4,-0.72 -1.88,0 -3.44,0.68 -1.52,0.68 -2.64,1.88 -1.08,1.2 -1.72,2.8 -0.6,1.56 -0.6,3.36 v 0.08 q 0,1.8 0.6,3.4 0.64,1.6 1.76,2.8 1.16,1.2 2.68,1.92 1.56,0.68 3.44,0.68 z m -0.08,5.68 q -3.24,0 -5.96,-1.12 -2.72,-1.16 -4.72,-3.08 -1.96,-1.96 -3.08,-4.56 -1.08,-2.64 -1.08,-5.64 v -0.08 q 0,-3 1.12,-5.6 1.12,-2.64 3.08,-4.6 2,-2 4.72,-3.12 2.76,-1.16 6,-1.16 3.24,0 5.96,1.16 2.72,1.12 4.68,3.08 2,1.92 3.08,4.56 1.12,2.6 1.12,5.6 v 0.08 q 0,3 -1.12,5.64 -1.12,2.6 -3.12,4.6 -1.96,1.96 -4.72,3.12 -2.72,1.12 -5.96,1.12 z"
           style="font-style:normal;font-variant:normal;font-weight:normal;font-stretch:normal;font-family:'Gotham Bold';-inkscape-font-specification:'Gotham Bold, ';letter-spacing:-2.10714173px;fill:#000000"
           id="path4709"
           inkscape:connector-curvature="0" />
        <path
           d="m 601.31369,146.43399 h 6.16 v 22.4 h 13.96 v 5.6 h -20.12 z"
           style="font-style:normal;font-variant:normal;font-weight:normal;font-stretch:normal;font-family:'Gotham Bold';-inkscape-font-specification:'Gotham Bold, ';letter-spacing:-2.10714173px;fill:#000000"
           id="path4711"
           inkscape:connector-curvature="0" />
        <path
           d="m 663.70449,174.83399 q -3.2,0 -6.28,-1.08 -3.08,-1.12 -5.6,-3.4 l 3.64,-4.36 q 1.92,1.56 3.92,2.48 2.04,0.92 4.44,0.92 1.92,0 2.96,-0.68 1.08,-0.72 1.08,-1.96 v -0.08 q 0,-0.6 -0.24,-1.04 -0.2,-0.48 -0.84,-0.88 -0.6,-0.4 -1.72,-0.8 -1.08,-0.4 -2.84,-0.84 -2.12,-0.52 -3.84,-1.16 -1.72,-0.64 -2.92,-1.56 -1.2,-0.96 -1.88,-2.36 -0.64,-1.4 -0.64,-3.48 v -0.08 q 0,-1.92 0.72,-3.44 0.72,-1.56 2,-2.68 1.32,-1.12 3.12,-1.72 1.8,-0.6 3.96,-0.6 3.08,0 5.64,0.92 2.6,0.92 4.76,2.64 l -3.2,4.64 q -1.88,-1.28 -3.68,-2 -1.8,-0.76 -3.6,-0.76 -1.8,0 -2.72,0.72 -0.88,0.68 -0.88,1.72 v 0.08 q 0,0.68 0.24,1.2 0.28,0.48 0.96,0.88 0.68,0.4 1.84,0.76 1.2,0.36 3,0.84 2.12,0.56 3.76,1.28 1.68,0.68 2.8,1.68 1.16,0.96 1.72,2.28 0.6,1.32 0.6,3.16 v 0.08 q 0,2.08 -0.76,3.72 -0.76,1.6 -2.12,2.72 -1.36,1.08 -3.24,1.68 -1.88,0.56 -4.16,0.56 z"
           style="font-style:normal;font-variant:normal;font-weight:normal;font-stretch:normal;font-family:'Gotham Bold';-inkscape-font-specification:'Gotham Bold, ';letter-spacing:-2.10714173px;fill:#000000"
           id="path4713"
           inkscape:connector-curvature="0" />
      </g>
      <path
         inkscape:connector-curvature="0"
         id="path4190-5-9-1-0-7-1"
         d="m 180.53136,214.12659 c -0.15525,4e-5 -0.24139,9e-5 -0.24183,1.8e-4 -3.5e-4,3.5e-4 -2.2e-4,0.46537 3.5e-4,1.0333 l 7.8e-4,1.03255 0.38133,-7.4e-4 0.38133,-7.9e-4 0.002,-0.035 c 0.0175,-0.24271 0.1841,-0.45602 0.44543,-0.57099 0.0813,-0.035 0.19679,-0.0656 0.29081,-0.0752 0.0783,-0.009 0.21165,-0.003 0.27856,0.009 0.16268,0.0306 0.28556,0.0853 0.39926,0.1723 0.066,0.0507 0.14037,0.13206 0.17623,0.19329 l 0.009,0.0175 -7.5e-4,1.3482 -7.8e-4,1.34815 -0.009,0.0529 c -0.0219,0.10889 -0.0464,0.18935 -0.0923,0.28249 -0.035,0.0735 -0.07,0.12682 -0.11545,0.18323 -0.17186,0.21384 -0.41456,0.3411 -0.67917,0.3564 -0.0306,0.002 -0.052,0.004 -0.0538,0.009 -0.003,0.009 -0.004,0.75207 -3.5e-4,0.75588 l 4e-5,4e-5 c 0.002,0.002 0.74132,0.002 1.64395,0.002 l 1.64119,-7.9e-4 v -0.38001 -0.38002 l -0.0262,-7.4e-4 c -0.0472,-0.002 -0.13949,-0.0131 -0.18191,-0.0262 -0.16924,-0.0394 -0.32317,-0.1255 -0.44959,-0.25013 -0.1618,-0.15918 -0.26763,-0.38002 -0.29168,-0.60606 -0.002,-0.0262 -0.004,-0.51807 -0.004,-1.36814 l -4e-5,-1.32804 0.0262,-0.0394 c 0.0455,-0.0687 0.10757,-0.13294 0.17623,-0.18235 0.0131,-0.009 0.0262,-0.0219 0.0306,-0.0219 0.002,-0.002 0.0131,-0.009 0.0262,-0.0175 0.14474,-0.0897 0.3201,-0.13775 0.50233,-0.13775 0.12113,0 0.22083,0.0175 0.32797,0.0529 0.27638,0.0949 0.47084,0.3048 0.50753,0.54829 0.003,0.0219 0.009,0.0525 0.009,0.0647 l 9e-5,0.0219 0.38351,-7.5e-4 0.38351,-7.8e-4 7.5e-4,-1.03116 7.8e-4,-1.03111 -3.05879,-7.9e-4 c -1.26174,-3.5e-4 -2.35159,-7e-4 -2.81784,-7e-4 z"
         style="fill:#ff8200;fill-opacity:1;stroke-width:0.00424777" />
    </g>
  </g>
</svg>
